{
    "efficiencies": [
        ["MediumID", "TrackerMuons"],
        ["MediumPromptID", "TrackerMuons"],
        ["TightMiniIso", "MediumID"],
        ["MediumMiniIso", "MediumID"],
        ["TightPFIso", "MediumID"],
        ["TightMiniIso", "MediumPromptID"],
        ["MediumMiniIso", "MediumPromptID"],
        ["TightPFIso", "MediumPromptID"]
    ],
    "selection": "tag_isTight==1 and tag_pt>26.0 and probe_pt > 10 and tag_abseta<2.4 and probe_abseta < 2.4 and tag_HLT_IsoMu24_v==1 and tag_PFIso<0.2 and pair_probeMultiplicity==1 and IP_cuts",
    "definitions": {
	"IP_cuts": "abs(pair_dz)<0.5 and abs(tag_dz) < 0.1 and abs(probe_dz) < 0.1 and abs(tag_dxy) < 0.02 and abs(probe_dxy) < 0.02",
	"tag_PFIso": "(tag_pfIso04_charged + (0.5 * (((tag_pfIso04_neutral+tag_pfIso04_photon-0.5*tag_pfIso04_sumPU) + (0.0)) + abs((tag_pfIso04_neutral+tag_pfIso04_photon-0.5*tag_pfIso04_sumPU) - (0.0)))))/tag_pt",
        "probe_abseta": "abs(probe_eta)",
        "tag_abseta": "abs(tag_eta)",
        "TrackerMuons": "probe_isTracker == 1",
        "LooseID": "probe_CutBasedIdLoose == 1",
        "MediumID": "probe_CutBasedIdMedium == 1",
        "TightID": "probe_CutBasedIdTight == 1",
        "TightPFIso": "probe_PFIsoTight == 1",
        "LoosePFIso": "probe_PFIsoLoose == 1",
        "TightMiniIso": "probe_miniIso < 0.1",
        "MediumMiniIso": "probe_miniIso < 0.2",
        "HighpTID": "probe_isHighPt == 1 and probe_pt > 53",
        "MediumPromptID": "probe_CutBasedIdMedium == 1 and abs(probe_dz) < 0.1 and abs(probe_dxy) < 0.02",
        "MPorHPID": "(probe_CutBasedIdMedium == 1 and abs(probe_dz) < 0.1 and abs(probe_dxy) < 0.02) or (probe_pt > 53 and probe_isHighPt == 1)",
        "haa4b_ID_ISO_WP": "((probe_CutBasedIdMedium == 1 and abs(probe_dz) < 0.1 and abs(probe_dxy) < 0.02) or (probe_pt > 53 and probe_isHighPt == 1)) and probe_miniIso < 0.1"

    },
    "binning": {
        "pt": [15, 20, 25, 30, 40, 50, 60, 120],
        "abseta": [0, 0.9, 1.2, 2.1, 2.4],
        "eta": [-2.4, -2.1, -1.6, -1.2, -0.9, -0.3, -0.2, 0.2, 0.3, 0.9, 1.2, 1.6, 2.1, 2.4],
        "mass": "np.array(range(60*4, 140*4+1)) * 0.25",
        "mcMass": "np.array(range(60*4, 140*4+1)) * 0.25"
    },
    "variables": {
        "pt": {"variable": "probe_pt", "pretty": "p_{T} (GeV)"},
        "abseta": {"variable": "probe_abseta", "pretty": "|#eta|"},
        "eta": {"variable": "probe_eta", "pretty": "#eta"},
        "mass": {"variable": "pair_mass", "pretty": "m(#mu#mu) (GeV)"},
        "mcMass": {"variable": "pair_mass", "pretty": "m(#mu#mu) (GeV)"}
    },
    "fitVariable": "mass",
    "fitVariableGen": "mcMass",
    "binVariables": [
        ["abseta", "pt"]
    ],
    "shifts": {
      "TagIsoUp": {
        "selection": "tag_isTight==1 and tag_pt>26.0 and probe_pt > 10 and tag_abseta<2.4 and probe_abseta < 2.4 and tag_HLT_IsoMu24_v==1 and tag_PFIso<0.3 and pair_probeMultiplicity==1 and IP_cuts"
      },
      "TagIsoDown": {
        "selection": "tag_isTight==1 and tag_pt>26.0 and probe_pt > 10 and tag_abseta<2.4 and probe_abseta < 2.4 and tag_HLT_IsoMu24_v==1 and tag_PFIso<0.1 and pair_probeMultiplicity==1 and IP_cuts"
      }
    },
    "fitShifts": {
        "AltSig": {"fitType": "AltSig"},
        "AltBkg": {"fitType": "AltBkg"},
        "NominalOld": {"fitType": "NominalOld"},
        "AltSigOld": {"fitType": "AltSigOld"},
        "tagIsoUp": {"shiftType": "tagIsoUp", "inType": "TagIsoUp"},
        "tagIsoDown": {"shiftType": "tagIsoDown", "inType": "TagIsoDown"},
        "massBinUp": {"shiftType": "massBinUp"},
        "massBinDown": {"shiftType": "massBinDown"},
        "massRangeUp": {"shiftType": "massRangeUp"},
        "massRangeDown": {"shiftType": "massRangeDown"}
    },
    "systematics" : {
        "SF": {
            "fitTypes": ["AltSigOld"],
            "shiftTypes": ["tagIso", "massBin", "massRange"]
        },
        "dataEff": {
            "fitTypes": ["AltSigOld"],
            "shiftTypes": ["tagIso", "massBin", "massRange"]
        },
        "mcEff": {
            "fitTypes": ["AltSigOld"],
            "shiftTypes": ["tagIso", "massBin", "massRange"]
        }
    }
}
