Setting default log level to "WARN".
To adjust logging level use sc.setLogLevel(newLevel). For SparkR, use setLogLevel(newLevel).
24/10/17 18:21:23 WARN Client: Neither spark.yarn.jars nor spark.yarn.archive is set, falling back to uploading libraries under SPARK_HOME.
24/10/17 18:21:38 WARN YarnSchedulerBackend$YarnSchedulerEndpoint: Attempted to request executors before the AM has registered!
24/10/17 18:21:50 WARN TableMapping: Line does not have two columns. Ignoring. /0513_R-0050/S513-C-IP402/EC14
[Stage 0:>                                                          (0 + 1) / 1]                                                                                [Stage 1:>                                                        (0 + 4) / 514][Stage 1:>                (0 + 4) / 514][Stage 2:>                (0 + 0) / 514][Stage 1:>                (1 + 4) / 514][Stage 2:>                (0 + 0) / 514][Stage 1:>                (4 + 4) / 514][Stage 2:>                (0 + 0) / 514][Stage 1:>                (5 + 4) / 514][Stage 2:>                (0 + 0) / 514][Stage 1:>                (7 + 4) / 514][Stage 2:>                (0 + 0) / 514][Stage 1:>                (9 + 4) / 514][Stage 2:>                (0 + 0) / 514][Stage 1:>               (11 + 4) / 514][Stage 2:>                (0 + 0) / 514][Stage 1:>               (12 + 4) / 514][Stage 2:>                (0 + 0) / 514][Stage 1:>               (15 + 4) / 514][Stage 2:>                (0 + 0) / 514][Stage 1:>               (18 + 4) / 514][Stage 2:>                (0 + 0) / 514][Stage 1:>               (22 + 4) / 514][Stage 2:>                (0 + 0) / 514][Stage 1:>               (24 + 4) / 514][Stage 2:>                (0 + 0) / 514][Stage 1:>               (25 + 8) / 514][Stage 2:>                (0 + 0) / 514][Stage 1:>              (27 + 11) / 514][Stage 2:>                (0 + 1) / 514][Stage 1:>              (28 + 10) / 514][Stage 2:>                (0 + 2) / 514][Stage 1:>               (29 + 9) / 514][Stage 2:>                (0 + 3) / 514][Stage 1:>               (29 + 9) / 514][Stage 2:>                (1 + 3) / 514][Stage 1:>              (29 + 13) / 514][Stage 2:>                (2 + 7) / 514][Stage 1:>              (30 + 12) / 514][Stage 2:>                (5 + 8) / 514][Stage 1:>              (30 + 12) / 514][Stage 2:>                (8 + 8) / 514][Stage 1:>              (30 + 12) / 514][Stage 2:>               (14 + 8) / 514][Stage 1:>              (30 + 12) / 514][Stage 2:>               (15 + 8) / 514][Stage 1:>              (30 + 12) / 514][Stage 2:>               (18 + 8) / 514][Stage 1:>              (30 + 12) / 514][Stage 2:>               (22 + 8) / 514][Stage 1:>              (30 + 12) / 514][Stage 2:>               (25 + 8) / 514][Stage 1:>              (30 + 12) / 514][Stage 2:>               (27 + 7) / 514][Stage 1:>              (30 + 12) / 514][Stage 2:>               (30 + 4) / 514][Stage 1:>              (30 + 16) / 514][Stage 2:>               (30 + 4) / 514][Stage 1:>              (30 + 24) / 514][Stage 2:>               (30 + 4) / 514][Stage 1:>              (33 + 24) / 514][Stage 2:>               (30 + 4) / 514][Stage 1:=>             (40 + 21) / 514][Stage 2:>               (30 + 4) / 514][Stage 1:=>             (44 + 21) / 514][Stage 2:>               (30 + 4) / 514]24/10/17 18:22:08 WARN YarnSchedulerBackend$YarnSchedulerEndpoint: Requesting driver to remove executor 6 for reason Container from a bad node: container_e291_1728468936023_18283_01_000008 on host: ithdp8003.cern.ch. Exit status: -1. Diagnostics: [2024-10-17 18:22:07.197]ResourceHandlerChain.preStart() failed!
[2024-10-17 18:22:07.197]ResourceHandlerChain.preStart() failed!
.
[Stage 1:=>             (47 + 24) / 514][Stage 2:>               (30 + 4) / 514][Stage 1:=>             (48 + 24) / 514][Stage 2:>               (30 + 4) / 514][Stage 1:=>             (49 + 24) / 514][Stage 2:>               (30 + 4) / 514][Stage 1:=>             (54 + 24) / 514][Stage 2:>               (30 + 4) / 514][Stage 1:=>             (55 + 24) / 514][Stage 2:>               (30 + 4) / 514][Stage 1:=>             (57 + 23) / 514][Stage 2:>              (30 + 17) / 514][Stage 1:=>             (60 + 24) / 514][Stage 2:>              (34 + 16) / 514][Stage 1:=>             (60 + 32) / 514][Stage 2:=>             (38 + 12) / 514][Stage 1:=>             (61 + 35) / 514][Stage 2:=>             (38 + 13) / 514][Stage 1:=>             (63 + 33) / 514][Stage 2:=>             (39 + 14) / 514][Stage 1:=>             (63 + 37) / 514][Stage 2:=>             (42 + 11) / 514][Stage 1:=>             (63 + 40) / 514][Stage 2:=>              (45 + 8) / 514][Stage 1:=>             (63 + 44) / 514][Stage 2:=>              (49 + 4) / 514][Stage 1:==>            (71 + 56) / 514][Stage 2:=>              (49 + 4) / 514][Stage 1:==>            (81 + 49) / 514][Stage 2:=>              (49 + 5) / 514][Stage 1:==>            (88 + 42) / 514][Stage 2:=>             (50 + 10) / 514][Stage 1:==>            (95 + 38) / 514][Stage 2:=>             (52 + 12) / 514][Stage 1:==>            (98 + 43) / 514][Stage 2:=>             (56 + 15) / 514][Stage 1:==>           (103 + 42) / 514][Stage 2:=>             (60 + 17) / 514][Stage 1:==>           (105 + 48) / 514][Stage 2:=>             (63 + 22) / 514][Stage 1:==>           (106 + 47) / 514][Stage 2:==>            (71 + 26) / 514][Stage 1:==>           (107 + 46) / 514][Stage 2:==>            (74 + 27) / 514][Stage 1:==>           (109 + 52) / 514][Stage 2:==>            (84 + 32) / 514][Stage 1:===>          (111 + 58) / 514][Stage 2:==>            (96 + 38) / 514][Stage 1:===>          (113 + 60) / 514][Stage 2:==>           (109 + 25) / 514][Stage 1:===>          (124 + 53) / 514][Stage 2:===>          (115 + 19) / 514][Stage 1:===>          (128 + 53) / 514][Stage 2:===>          (117 + 17) / 514][Stage 1:===>          (128 + 53) / 514][Stage 2:===>          (121 + 13) / 514][Stage 1:===>          (128 + 57) / 514][Stage 2:===>          (121 + 13) / 514][Stage 1:===>          (128 + 61) / 514][Stage 2:===>          (122 + 12) / 514][Stage 1:===>          (128 + 69) / 514][Stage 2:===>          (122 + 12) / 514][Stage 1:===>          (128 + 73) / 514][Stage 2:===>          (122 + 12) / 514][Stage 1:===>          (128 + 93) / 514][Stage 2:===>          (122 + 12) / 514][Stage 1:===>          (129 + 92) / 514][Stage 2:===>          (124 + 10) / 514][Stage 1:===>          (133 + 96) / 514][Stage 2:===>          (124 + 10) / 514][Stage 1:===>          (136 + 96) / 514][Stage 2:===>           (127 + 7) / 514][Stage 1:====>         (149 + 90) / 514][Stage 2:===>          (134 + 17) / 514][Stage 1:====>         (162 + 86) / 514][Stage 2:===>          (141 + 10) / 514][Stage 1:====>         (171 + 87) / 514][Stage 2:====>          (147 + 4) / 514][Stage 1:=====>        (187 + 93) / 514][Stage 2:====>          (149 + 2) / 514][Stage 1:=====>        (206 + 92) / 514][Stage 2:====>          (149 + 2) / 514][Stage 1:======>       (222 + 96) / 514][Stage 2:====>          (151 + 0) / 514][Stage 1:======>       (242 + 96) / 514][Stage 2:====>          (151 + 0) / 514][Stage 1:=======>      (260 + 96) / 514][Stage 2:====>          (151 + 0) / 514][Stage 1:=======>     (286 + 113) / 514][Stage 2:====>          (151 + 6) / 514][Stage 1:========>     (307 + 94) / 514][Stage 2:====>         (154 + 19) / 514][Stage 1:=========>    (339 + 72) / 514][Stage 2:====>         (161 + 23) / 514][Stage 1:=========>    (350 + 65) / 514][Stage 2:====>         (165 + 24) / 514][Stage 1:=========>    (365 + 57) / 514][Stage 2:====>         (174 + 28) / 514][Stage 1:==========>   (377 + 48) / 514][Stage 2:====>         (183 + 37) / 514][Stage 1:==========>   (381 + 46) / 514][Stage 2:=====>        (193 + 39) / 514][Stage 1:==========>   (386 + 41) / 514][Stage 2:=====>        (208 + 47) / 514][Stage 1:==========>   (392 + 39) / 514][Stage 2:======>       (223 + 49) / 514][Stage 1:==========>   (396 + 39) / 514][Stage 2:======>       (242 + 49) / 514]24/10/17 18:22:20 WARN YarnSchedulerBackend$YarnSchedulerEndpoint: Requesting driver to remove executor 33 for reason Container from a bad node: container_e291_1728468936023_18283_01_000050 on host: ithdp8006.cern.ch. Exit status: -1. Diagnostics: [2024-10-17 18:22:18.448]ResourceHandlerChain.preStart() failed!
[2024-10-17 18:22:18.448]ResourceHandlerChain.preStart() failed!
.
[Stage 1:==========>   (399 + 36) / 514][Stage 2:=======>      (259 + 83) / 514][Stage 1:===========>  (413 + 26) / 514][Stage 2:========>     (294 + 64) / 514][Stage 1:===========>  (418 + 24) / 514][Stage 2:========>     (309 + 54) / 514][Stage 1:===========>  (421 + 22) / 514][Stage 2:========>     (327 + 48) / 514][Stage 1:===========>  (426 + 20) / 514][Stage 2:=========>    (332 + 45) / 514][Stage 1:===========>  (432 + 23) / 514][Stage 2:=========>    (341 + 39) / 514][Stage 1:===========>  (434 + 31) / 514][Stage 2:=========>    (351 + 29) / 514][Stage 1:===========>  (438 + 39) / 514][Stage 2:=========>    (363 + 17) / 514][Stage 1:============> (447 + 39) / 514][Stage 2:=========>    (365 + 17) / 514][Stage 1:============> (457 + 41) / 514][Stage 2:==========>   (371 + 15) / 514][Stage 1:============> (472 + 32) / 514][Stage 2:==========>   (376 + 20) / 514][Stage 1:=============>(482 + 23) / 514][Stage 2:==========>   (380 + 23) / 514][Stage 1:=============>(490 + 16) / 514][Stage 2:==========>   (387 + 23) / 514][Stage 1:=============>(495 + 12) / 514][Stage 2:==========>   (395 + 20) / 514][Stage 1:=============>(497 + 10) / 514][Stage 2:==========>   (400 + 18) / 514][Stage 1:==============>(500 + 7) / 514][Stage 2:==========>   (403 + 23) / 514][Stage 1:==============>(502 + 5) / 514][Stage 2:===========>  (406 + 31) / 514][Stage 1:==============>(505 + 2) / 514][Stage 2:===========>  (409 + 34) / 514][Stage 1:==============>(505 + 2) / 514][Stage 2:===========>  (416 + 31) / 514][Stage 1:==============>(506 + 1) / 514][Stage 2:===========>  (425 + 28) / 514][Stage 1:==============>(507 + 7) / 514][Stage 2:===========>  (434 + 46) / 514][Stage 1:==============>(507 + 7) / 514][Stage 2:============> (456 + 35) / 514][Stage 1:==============>(512 + 2) / 514][Stage 2:============> (475 + 18) / 514][Stage 1:==============>(513 + 1) / 514][Stage 2:=============>(487 + 11) / 514][Stage 2:====================================================>  (491 + 7) / 514][Stage 2:====================================================>  (494 + 4) / 514][Stage 2:=====================================================> (498 + 4) / 514][Stage 2:=====================================================> (500 + 3) / 514][Stage 2:=====================================================> (503 + 0) / 514][Stage 2:====================================================> (504 + 10) / 514][Stage 2:======================================================>(508 + 6) / 514][Stage 2:======================================================>(511 + 3) / 514][Stage 2:======================================================>(513 + 1) / 514][Stage 4:>                                                      (1 + 124) / 200][Stage 4:=============>                                        (49 + 124) / 200][Stage 4:=================================>                    (124 + 76) / 200][Stage 4:===============================================>      (177 + 23) / 200][Stage 4:======================================================>(197 + 3) / 200][Stage 8:>                                                      (0 + 124) / 200][Stage 8:>                                                      (1 + 124) / 200][Stage 8:=>                                                     (6 + 124) / 200][Stage 8:======>                                               (24 + 118) / 200][Stage 8:=============>                                        (49 + 108) / 200][Stage 8:======================>                                (82 + 90) / 200][Stage 8:=============================>                        (111 + 68) / 200][Stage 8:=====================================>                (140 + 48) / 200][Stage 8:============================================>         (166 + 30) / 200][Stage 8:================================================>     (179 + 19) / 200][Stage 8:=================================================>    (185 + 13) / 200][Stage 8:===================================================>  (189 + 10) / 200][Stage 8:=====================================================> (193 + 7) / 200][Stage 8:=====================================================> (195 + 5) / 200][Stage 8:======================================================>(197 + 3) / 200][Stage 8:======================================================>(199 + 1) / 200]                                                                                [Stage 14:>                                                     (6 + 128) / 514][Stage 14:>            (28 + 128) / 514][Stage 15:>               (0 + 0) / 514][Stage 14:=>           (72 + 126) / 514][Stage 15:>               (0 + 2) / 514][Stage 14:==>         (119 + 119) / 514][Stage 15:>               (2 + 9) / 514][Stage 14:===>        (171 + 113) / 514][Stage 15:>             (11 + 15) / 514][Stage 14:=====>       (212 + 96) / 514][Stage 15:>             (26 + 29) / 514][Stage 14:======>      (249 + 81) / 514][Stage 15:=>            (38 + 42) / 514][Stage 14:=======>     (287 + 61) / 514][Stage 15:=>            (69 + 53) / 514][Stage 14:=======>     (306 + 48) / 514][Stage 15:==>          (106 + 49) / 514][Stage 14:========>    (323 + 38) / 514][Stage 15:===>         (135 + 45) / 514][Stage 14:========>    (343 + 25) / 514][Stage 15:====>        (162 + 55) / 514][Stage 14:========>    (353 + 17) / 514][Stage 15:====>        (193 + 62) / 514][Stage 14:=========>   (359 + 12) / 514][Stage 15:=====>       (228 + 53) / 514][Stage 14:=========>    (362 + 9) / 514][Stage 15:======>      (256 + 44) / 514][Stage 14:=========>    (364 + 7) / 514][Stage 15:=======>     (284 + 35) / 514][Stage 14:=========>    (364 + 7) / 514][Stage 15:=======>     (303 + 22) / 514][Stage 14:=========>    (365 + 6) / 514][Stage 15:========>    (317 + 13) / 514][Stage 14:=========>    (366 + 6) / 514][Stage 15:========>    (325 + 10) / 514][Stage 14:==========>   (368 + 9) / 514][Stage 15:=========>    (333 + 7) / 514][Stage 14:==========>   (371 + 9) / 514][Stage 15:=========>    (336 + 7) / 514][Stage 14:=========>   (379 + 57) / 514][Stage 15:========>    (341 + 18) / 514][Stage 14:==========>  (418 + 43) / 514][Stage 15:========>    (354 + 24) / 514][Stage 14:===========> (456 + 28) / 514][Stage 15:=========>   (378 + 20) / 514][Stage 14:============>(477 + 12) / 514][Stage 15:==========>  (402 + 33) / 514][Stage 14:=============>(481 + 9) / 514][Stage 15:==========>  (431 + 25) / 514][Stage 14:=============>(489 + 1) / 514][Stage 15:===========> (448 + 27) / 514][Stage 14:=============>(490 + 0) / 514][Stage 15:===========> (474 + 13) / 514][Stage 14:=============>(490 + 0) / 514][Stage 15:=============>(488 + 2) / 514][Stage 14:=============>(490 + 0) / 514][Stage 15:=============>(490 + 0) / 514][Stage 14:============>(493 + 21) / 514][Stage 15:============>(490 + 12) / 514][Stage 14:=============>(507 + 7) / 514][Stage 15:============>(500 + 14) / 514][Stage 14:=============>(513 + 1) / 514][Stage 15:=============>(507 + 7) / 514][Stage 15:=====================================================>(511 + 3) / 514][Stage 15:=====================================================>(512 + 2) / 514][Stage 17:===================================================>  (192 + 8) / 200][Stage 21:===========================>                         (103 + 90) / 200][Stage 21:========================================>            (151 + 45) / 200][Stage 21:===========================================>         (165 + 31) / 200][Stage 21:===============================================>     (179 + 17) / 200][Stage 21:==================================================>  (189 + 10) / 200][Stage 21:===================================================>  (192 + 8) / 200][Stage 21:====================================================> (196 + 4) / 200][Stage 21:=====================================================>(198 + 2) / 200]                                                                                [Stage 28:=====>       (107 + 54) / 252][Stage 29:==>           (49 + 58) / 252][Stage 28:======>      (128 + 37) / 252][Stage 29:=====>        (91 + 36) / 252][Stage 28:=======>     (144 + 22) / 252][Stage 29:======>      (118 + 29) / 252][Stage 28:========>     (160 + 7) / 252][Stage 29:=======>     (139 + 13) / 252][Stage 28:=========>    (165 + 2) / 252][Stage 29:========>     (150 + 7) / 252][Stage 28:=========>    (166 + 1) / 252][Stage 29:========>     (157 + 7) / 252][Stage 28:=========>    (167 + 0) / 252][Stage 29:=========>    (164 + 3) / 252][Stage 28:=========>    (167 + 0) / 252][Stage 29:=========>    (167 + 0) / 252][Stage 28:=========>   (175 + 48) / 252][Stage 29:=========>    (167 + 6) / 252][Stage 28:=========>   (192 + 39) / 252][Stage 29:========>    (171 + 15) / 252][Stage 28:===========> (216 + 19) / 252][Stage 29:=========>   (184 + 24) / 252][Stage 28:============> (227 + 8) / 252][Stage 29:==========>  (205 + 22) / 252][Stage 28:============> (233 + 2) / 252][Stage 29:===========> (223 + 11) / 252][Stage 28:=============>(235 + 0) / 252][Stage 29:============> (231 + 4) / 252][Stage 28:=============>(235 + 0) / 252][Stage 29:============> (233 + 2) / 252][Stage 28:=============>(235 + 0) / 252][Stage 29:=============>(235 + 0) / 252][Stage 28:============>(236 + 16) / 252][Stage 29:=============>(235 + 4) / 252][Stage 28:============>(239 + 13) / 252][Stage 29:============>(235 + 16) / 252][Stage 28:=============>(248 + 4) / 252][Stage 29:=============>(243 + 9) / 252][Stage 28:=============>(251 + 1) / 252][Stage 29:=============>(249 + 3) / 252][Stage 28:=============>(251 + 1) / 252][Stage 29:=============>(251 + 1) / 252][Stage 29:=====================================================>(251 + 1) / 252][Stage 35:============================================>        (168 + 32) / 200][Stage 35:==================================================>  (190 + 10) / 200][Stage 35:=====================================================>(198 + 2) / 200][Stage 35:=====================================================>(199 + 1) / 200]                                                                                [Stage 41:=========>    (164 + 3) / 252][Stage 42:======>      (123 + 30) / 252][Stage 41:=========>    (167 + 0) / 252][Stage 42:=======>     (152 + 14) / 252][Stage 41:=========>    (167 + 0) / 252][Stage 42:========>     (161 + 5) / 252][Stage 41:=========>    (167 + 0) / 252][Stage 42:=========>    (162 + 4) / 252][Stage 41:=========>    (167 + 0) / 252][Stage 42:=========>    (167 + 0) / 252][Stage 41:=========>   (178 + 46) / 252][Stage 42:=========>    (170 + 6) / 252][Stage 41:===========> (217 + 18) / 252][Stage 42:=========>   (176 + 31) / 252][Stage 41:============> (232 + 3) / 252][Stage 42:==========>  (202 + 26) / 252][Stage 41:=============>(234 + 1) / 252][Stage 42:===========> (225 + 10) / 252][Stage 41:=============>(234 + 1) / 252][Stage 42:============> (232 + 3) / 252][Stage 41:=============>(235 + 0) / 252][Stage 42:=============>(235 + 0) / 252][Stage 41:============>(241 + 11) / 252][Stage 42:============>(240 + 12) / 252][Stage 41:=============>(245 + 7) / 252][Stage 42:=============>(246 + 6) / 252][Stage 41:=============>(250 + 2) / 252][Stage 42:=============>(251 + 1) / 252][Stage 42:=====================================================>(251 + 1) / 252][Stage 48:====================================================> (196 + 4) / 200]                                                                                [Stage 55:=====>       (106 + 55) / 245][Stage 56:==>           (47 + 18) / 245][Stage 55:======>      (126 + 37) / 245][Stage 56:===>          (62 + 24) / 245][Stage 55:=======>     (149 + 18) / 245][Stage 56:=====>        (91 + 36) / 245][Stage 55:========>    (160 + 13) / 245][Stage 56:======>      (128 + 17) / 245][Stage 55:========>    (164 + 11) / 245][Stage 56:========>     (140 + 7) / 245][Stage 55:=========>    (168 + 9) / 245][Stage 56:========>     (145 + 2) / 245][Stage 55:=========>    (173 + 8) / 245][Stage 56:========>     (146 + 2) / 245][Stage 55:==========>   (178 + 6) / 245][Stage 56:========>     (148 + 3) / 245][Stage 55:==========>   (179 + 5) / 245][Stage 56:========>     (154 + 4) / 245][Stage 55:==========>   (183 + 1) / 245][Stage 56:========>     (157 + 7) / 245][Stage 55:==========>   (184 + 0) / 245][Stage 56:=========>    (165 + 8) / 245][Stage 55:==========>   (184 + 0) / 245][Stage 56:=========>    (173 + 7) / 245][Stage 55:==========>   (184 + 1) / 245][Stage 56:==========>   (180 + 4) / 245][Stage 55:==========>  (190 + 33) / 245][Stage 56:=========>   (185 + 17) / 245][Stage 55:==========>  (207 + 22) / 245][Stage 56:==========>  (196 + 16) / 245][Stage 55:===========> (219 + 12) / 245][Stage 56:===========> (210 + 11) / 245][Stage 55:============> (224 + 7) / 245][Stage 56:============> (220 + 5) / 245][Stage 55:============> (226 + 5) / 245][Stage 56:============> (223 + 5) / 245][Stage 55:=============>(228 + 4) / 245][Stage 56:============> (227 + 2) / 245][Stage 55:=============>(229 + 3) / 245][Stage 56:============> (227 + 3) / 245][Stage 55:=============>(231 + 1) / 245][Stage 56:=============>(230 + 2) / 245][Stage 55:=============>(231 + 1) / 245][Stage 56:=============>(231 + 1) / 245][Stage 55:=============>(232 + 0) / 245][Stage 56:=============>(231 + 1) / 245][Stage 55:=============>(232 + 0) / 245][Stage 56:=============>(232 + 0) / 245][Stage 55:============>(232 + 13) / 245][Stage 56:============>(232 + 13) / 245][Stage 55:=============>(236 + 9) / 245][Stage 56:=============>(237 + 8) / 245][Stage 55:=============>(241 + 4) / 245][Stage 56:=============>(241 + 4) / 245][Stage 62:=================================================>   (186 + 12) / 200][Stage 62:=====================================================>(198 + 2) / 200]                                                                                [Stage 68:========>    (164 + 19) / 245][Stage 69:=====>        (94 + 29) / 245][Stage 68:==========>   (177 + 7) / 245][Stage 69:======>      (123 + 20) / 245][Stage 68:==========>   (184 + 0) / 245][Stage 69:=======>     (139 + 22) / 245][Stage 68:==========>   (184 + 0) / 245][Stage 69:=========>    (164 + 9) / 245][Stage 68:==========>   (184 + 0) / 245][Stage 69:=========>    (174 + 8) / 245][Stage 68:==========>   (184 + 0) / 245][Stage 69:==========>   (182 + 2) / 245][Stage 68:==========>   (184 + 0) / 245][Stage 69:==========>   (184 + 0) / 245][Stage 68:===========> (210 + 21) / 245][Stage 69:==========>  (191 + 23) / 245][Stage 68:============> (223 + 9) / 245][Stage 69:============> (217 + 8) / 245][Stage 68:============> (227 + 5) / 245][Stage 69:============> (224 + 6) / 245][Stage 68:=============>(230 + 2) / 245][Stage 69:=============>(228 + 4) / 245][Stage 68:=============>(232 + 0) / 245][Stage 69:=============>(231 + 1) / 245][Stage 68:=============>(232 + 0) / 245][Stage 69:=============>(232 + 0) / 245][Stage 68:=============>(239 + 6) / 245][Stage 69:=============>(241 + 4) / 245][Stage 68:=============>(241 + 4) / 245][Stage 69:=============>(242 + 3) / 245][Stage 68:=============>(244 + 1) / 245][Stage 69:=============>(244 + 1) / 245][Stage 75:===================================================>  (192 + 8) / 200]                                                                                [Stage 82:==>         (195 + 128) / 884][Stage 83:>               (0 + 0) / 884][Stage 82:===>        (270 + 117) / 884][Stage 83:>              (3 + 11) / 884][Stage 82:====>       (329 + 103) / 884][Stage 83:>             (25 + 25) / 884][Stage 82:=====>       (385 + 82) / 884][Stage 83:=>            (64 + 46) / 884][Stage 82:======>      (428 + 62) / 884][Stage 83:=>           (133 + 64) / 884][Stage 82:======>      (459 + 54) / 884][Stage 83:==>          (202 + 60) / 884][Stage 82:=======>     (482 + 46) / 884][Stage 83:===>         (258 + 41) / 884][Stage 82:=======>     (506 + 29) / 884][Stage 83:====>        (306 + 45) / 884][Stage 82:=======>     (517 + 22) / 884][Stage 83:=====>       (348 + 37) / 884][Stage 82:=======>     (527 + 16) / 884][Stage 83:=====>       (393 + 36) / 884][Stage 82:=======>     (535 + 11) / 884][Stage 83:======>      (428 + 30) / 884][Stage 82:========>     (544 + 9) / 884][Stage 83:======>      (457 + 21) / 884][Stage 82:========>     (548 + 8) / 884][Stage 83:======>      (474 + 12) / 884][Stage 82:========>     (551 + 8) / 884][Stage 83:=======>      (481 + 8) / 884][Stage 82:========>     (555 + 8) / 884][Stage 83:=======>      (488 + 4) / 884][Stage 82:========>     (559 + 8) / 884][Stage 83:=======>      (489 + 3) / 884][Stage 82:========>    (562 + 12) / 884][Stage 83:=======>      (492 + 0) / 884][Stage 82:========>    (568 + 64) / 884][Stage 83:=======>      (492 + 0) / 884][Stage 82:========>    (592 + 64) / 884][Stage 83:=======>      (492 + 0) / 884][Stage 82:=========>   (619 + 61) / 884][Stage 83:=======>      (492 + 3) / 884][Stage 82:=========>   (654 + 50) / 884][Stage 83:=======>     (495 + 14) / 884][Stage 82:=========>   (675 + 47) / 884][Stage 83:=======>     (506 + 15) / 884][Stage 82:==========>  (701 + 45) / 884][Stage 83:=======>     (518 + 10) / 884][Stage 82:==========>  (726 + 44) / 884][Stage 83:========>     (527 + 9) / 884][Stage 82:==========>  (744 + 36) / 884][Stage 83:=======>     (534 + 11) / 884][Stage 82:===========> (765 + 28) / 884][Stage 83:=======>     (542 + 17) / 884][Stage 82:===========> (774 + 24) / 884][Stage 83:========>    (557 + 20) / 884][Stage 82:===========> (790 + 17) / 884][Stage 83:========>    (563 + 27) / 884][Stage 82:===========> (799 + 13) / 884][Stage 83:========>    (584 + 31) / 884][Stage 82:===========> (807 + 10) / 884][Stage 83:========>    (606 + 34) / 884][Stage 82:============> (815 + 8) / 884][Stage 83:=========>   (630 + 36) / 884][Stage 82:============>(823 + 33) / 884][Stage 83:=========>   (655 + 11) / 884][Stage 82:============>(840 + 44) / 884][Stage 83:==========>   (660 + 6) / 884][Stage 82:============>(856 + 28) / 884][Stage 83:=========>   (668 + 18) / 884][Stage 82:============>(872 + 12) / 884][Stage 83:==========>  (689 + 32) / 884][Stage 82:=============>(878 + 6) / 884][Stage 83:==========>  (712 + 42) / 884][Stage 82:=============>(880 + 4) / 884][Stage 83:===========> (753 + 54) / 884][Stage 82:=============>(881 + 3) / 884][Stage 83:===========> (800 + 84) / 884][Stage 82:=============>(883 + 1) / 884][Stage 83:============>(832 + 52) / 884][Stage 83:===================================================> (860 + 24) / 884][Stage 83:====================================================>(873 + 11) / 884][Stage 83:=====================================================>(877 + 7) / 884][Stage 83:=====================================================>(878 + 6) / 884][Stage 83:=====================================================>(880 + 4) / 884][Stage 83:=====================================================>(881 + 3) / 884][Stage 83:=====================================================>(883 + 1) / 884][Stage 85:=====================================================>(198 + 2) / 200][Stage 89:======================================>              (146 + 48) / 200][Stage 89:================================================>    (182 + 18) / 200][Stage 89:==================================================>  (190 + 10) / 200][Stage 89:====================================================> (195 + 5) / 200][Stage 89:=====================================================>(198 + 2) / 200]                                                                                [Stage 95:====>       (324 + 122) / 884][Stage 96:>               (0 + 6) / 884][Stage 95:======>      (426 + 76) / 884][Stage 96:>             (15 + 52) / 884][Stage 95:======>      (472 + 52) / 884][Stage 96:=>            (78 + 76) / 884][Stage 95:=======>     (509 + 26) / 884][Stage 96:==>         (183 + 102) / 884][Stage 95:=======>     (525 + 15) / 884][Stage 96:====>        (295 + 67) / 884][Stage 95:========>     (540 + 6) / 884][Stage 96:=====>       (372 + 53) / 884][Stage 95:========>     (550 + 4) / 884][Stage 96:======>      (436 + 40) / 884][Stage 95:========>     (556 + 4) / 884][Stage 96:=======>     (478 + 30) / 884][Stage 95:========>     (564 + 4) / 884][Stage 96:=======>     (503 + 16) / 884][Stage 95:=========>    (569 + 4) / 884][Stage 96:========>     (519 + 8) / 884][Stage 95:=========>    (574 + 4) / 884][Stage 96:========>     (529 + 4) / 884][Stage 95:=========>    (578 + 4) / 884][Stage 96:========>     (533 + 1) / 884][Stage 95:=========>    (582 + 4) / 884][Stage 96:========>     (534 + 0) / 884][Stage 95:========>    (582 + 64) / 884][Stage 96:========>     (534 + 0) / 884][Stage 95:========>    (585 + 64) / 884][Stage 96:========>     (534 + 0) / 884][Stage 95:========>    (589 + 64) / 884][Stage 96:========>     (534 + 0) / 884][Stage 95:=========>   (669 + 48) / 884][Stage 96:=======>     (536 + 16) / 884][Stage 95:==========>  (708 + 45) / 884][Stage 96:========>     (555 + 9) / 884][Stage 95:==========>  (746 + 39) / 884][Stage 96:========>    (563 + 13) / 884][Stage 95:===========> (773 + 46) / 884][Stage 96:=========>    (575 + 6) / 884][Stage 95:===========> (814 + 50) / 884][Stage 96:=========>    (579 + 2) / 884][Stage 95:============>(842 + 42) / 884][Stage 96:========>    (580 + 10) / 884][Stage 95:============>(860 + 24) / 884][Stage 96:========>   (590 + 104) / 884][Stage 95:============>(872 + 12) / 884][Stage 96:=========>   (656 + 74) / 884][Stage 95:=============>(875 + 9) / 884][Stage 96:==========>  (712 + 54) / 884][Stage 95:=============>(878 + 6) / 884][Stage 96:===========> (759 + 46) / 884][Stage 95:=============>(881 + 3) / 884][Stage 96:===========> (800 + 31) / 884][Stage 95:=============>(882 + 2) / 884][Stage 96:============>(820 + 23) / 884][Stage 96:=================================================>   (833 + 15) / 884][Stage 96:===================================================>  (844 + 6) / 884][Stage 96:===================================================>  (849 + 1) / 884][Stage 96:===================================================>  (850 + 0) / 884][Stage 96:==================================================>  (850 + 34) / 884][Stage 96:===================================================> (865 + 19) / 884][Stage 96:=====================================================>(877 + 7) / 884][Stage 96:=====================================================>(881 + 3) / 884][Stage 96:=====================================================>(883 + 1) / 884][Stage 98:====================================================> (195 + 5) / 200][Stage 102:=========================================>          (160 + 40) / 200][Stage 102:===============================================>    (183 + 17) / 200][Stage 102:================================================>   (186 + 14) / 200][Stage 102:===================================================> (193 + 7) / 200][Stage 102:===================================================> (196 + 4) / 200][Stage 102:====================================================>(199 + 1) / 200]                                                                                [Stage 109:======>      (66 + 15) / 133][Stage 110:=======>      (72 + 9) / 133][Stage 109:========>     (80 + 1) / 133][Stage 110:========>     (81 + 0) / 133][Stage 109:========>     (81 + 0) / 133][Stage 110:========>     (81 + 0) / 133][Stage 109:========>    (84 + 30) / 133][Stage 110:========>    (83 + 17) / 133][Stage 109:=========>  (102 + 16) / 133][Stage 110:=========>  (102 + 10) / 133][Stage 109:==========>  (112 + 6) / 133][Stage 110:===========> (113 + 2) / 133][Stage 109:===========> (117 + 1) / 133][Stage 110:===========> (117 + 1) / 133][Stage 109:===========> (117 + 1) / 133][Stage 110:===========> (118 + 0) / 133][Stage 109:===========> (118 + 0) / 133][Stage 110:===========> (118 + 0) / 133][Stage 109:==========> (121 + 12) / 133][Stage 110:==========> (121 + 12) / 133][Stage 109:============>(127 + 6) / 133][Stage 110:============>(126 + 7) / 133][Stage 109:============>(130 + 3) / 133][Stage 110:============>(131 + 2) / 133][Stage 109:============>(132 + 1) / 133][Stage 110:============>(132 + 1) / 133][Stage 116:======>                                              (13 + 85) / 100][Stage 116:=============================>                       (55 + 45) / 100][Stage 116:============================================>        (84 + 16) / 100][Stage 116:=================================================>    (91 + 9) / 100]                                                                                [Stage 122:=======>      (75 + 6) / 133][Stage 123:========>     (77 + 2) / 133][Stage 122:========>     (80 + 1) / 133][Stage 123:========>     (81 + 0) / 133][Stage 122:========>     (81 + 0) / 133][Stage 123:========>     (81 + 0) / 133][Stage 122:=========>   (93 + 23) / 133][Stage 123:========>    (86 + 20) / 133][Stage 122:==========>  (110 + 8) / 133][Stage 123:==========>  (107 + 3) / 133][Stage 122:===========> (113 + 5) / 133][Stage 123:==========>  (108 + 4) / 133][Stage 122:===========> (116 + 2) / 133][Stage 123:===========> (115 + 3) / 133][Stage 122:===========> (117 + 1) / 133][Stage 123:===========> (116 + 2) / 133][Stage 122:===========> (117 + 1) / 133][Stage 123:===========> (117 + 1) / 133][Stage 122:===========> (118 + 0) / 133][Stage 123:===========> (118 + 0) / 133][Stage 122:==========> (118 + 15) / 133][Stage 123:==========> (118 + 15) / 133][Stage 122:===========>(123 + 10) / 133][Stage 123:============>(124 + 9) / 133][Stage 122:============>(128 + 5) / 133][Stage 123:============>(130 + 3) / 133][Stage 122:============>(129 + 4) / 133][Stage 123:============>(130 + 3) / 133][Stage 122:============>(130 + 3) / 133][Stage 123:============>(131 + 2) / 133][Stage 122:============>(131 + 2) / 133][Stage 123:============>(131 + 2) / 133][Stage 129:===========================================>         (82 + 18) / 100][Stage 129:===================================================>  (96 + 4) / 100][Stage 129:====================================================> (98 + 2) / 100]                                                                                [Stage 136:=============>                                     (121 + 114) / 459][Stage 136:====>       (190 + 79) / 459][Stage 137:>            (28 + 49) / 459][Stage 136:======>     (237 + 55) / 459][Stage 137:==>          (95 + 51) / 459][Stage 136:=======>    (270 + 33) / 459][Stage 137:====>       (157 + 41) / 459][Stage 136:=======>    (290 + 20) / 459][Stage 137:=====>      (208 + 27) / 459][Stage 136:=======>    (299 + 11) / 459][Stage 137:======>     (238 + 22) / 459][Stage 136:========>    (304 + 8) / 459][Stage 137:======>     (264 + 16) / 459][Stage 136:========>    (309 + 5) / 459][Stage 137:=======>     (281 + 8) / 459][Stage 136:========>    (313 + 4) / 459][Stage 137:========>    (289 + 4) / 459][Stage 136:========>    (315 + 4) / 459][Stage 137:========>    (293 + 2) / 459][Stage 136:========>    (317 + 4) / 459][Stage 137:========>    (295 + 0) / 459][Stage 136:=========>   (318 + 4) / 459][Stage 137:========>    (295 + 0) / 459][Stage 136:=========>   (321 + 4) / 459][Stage 137:========>    (295 + 0) / 459][Stage 136:=========>   (325 + 3) / 459][Stage 137:========>    (295 + 1) / 459][Stage 136:=========>   (325 + 3) / 459][Stage 137:========>    (297 + 1) / 459][Stage 136:========>   (327 + 54) / 459][Stage 137:========>    (299 + 1) / 459][Stage 136:=========>  (346 + 50) / 459][Stage 137:========>    (300 + 0) / 459][Stage 136:==========> (385 + 27) / 459][Stage 137:=======>    (304 + 19) / 459][Stage 136:==========> (403 + 15) / 459][Stage 137:========>   (324 + 31) / 459][Stage 136:===========> (414 + 8) / 459][Stage 137:=========>  (356 + 21) / 459][Stage 136:===========> (420 + 3) / 459][Stage 137:=========>  (375 + 23) / 459][Stage 136:===========> (422 + 1) / 459][Stage 137:==========> (399 + 14) / 459][Stage 136:===========> (423 + 0) / 459][Stage 137:===========> (413 + 7) / 459][Stage 136:===========> (423 + 0) / 459][Stage 137:===========> (422 + 1) / 459][Stage 136:===========> (423 + 0) / 459][Stage 137:===========> (423 + 0) / 459][Stage 136:===========>(423 + 36) / 459][Stage 137:===========> (423 + 0) / 459][Stage 136:===========>(439 + 20) / 459][Stage 137:===========> (423 + 0) / 459][Stage 136:============>(453 + 6) / 459][Stage 137:===========>(424 + 35) / 459][Stage 136:============>(457 + 2) / 459][Stage 137:============>(451 + 8) / 459][Stage 136:============>(457 + 2) / 459][Stage 137:============>(455 + 4) / 459][Stage 136:============>(458 + 1) / 459][Stage 137:============>(456 + 3) / 459][Stage 137:====================================================>(457 + 2) / 459][Stage 143:=========================================>          (158 + 42) / 200][Stage 143:==============================================>     (179 + 21) / 200][Stage 143:===================================================> (194 + 6) / 200][Stage 143:===================================================> (196 + 4) / 200][Stage 143:====================================================>(199 + 1) / 200]                                                                                [Stage 149:=========================>                          (225 + 71) / 459][Stage 149:=======>    (281 + 28) / 459][Stage 150:==>         (110 + 84) / 459][Stage 149:=======>    (302 + 16) / 459][Stage 150:=====>      (213 + 41) / 459][Stage 149:========>   (314 + 11) / 459][Stage 150:======>     (253 + 17) / 459][Stage 149:=========>   (318 + 7) / 459][Stage 150:=======>    (275 + 16) / 459][Stage 149:=========>   (320 + 5) / 459][Stage 150:========>    (293 + 2) / 459][Stage 149:=========>   (321 + 4) / 459][Stage 150:========>    (293 + 2) / 459][Stage 149:=========>   (322 + 4) / 459][Stage 150:========>    (295 + 0) / 459][Stage 149:=========>   (328 + 0) / 459][Stage 150:========>    (296 + 4) / 459][Stage 149:=========>   (328 + 0) / 459][Stage 150:========>    (302 + 4) / 459][Stage 149:=========>   (328 + 0) / 459][Stage 150:========>    (308 + 4) / 459][Stage 149:=========>   (328 + 0) / 459][Stage 150:========>    (315 + 4) / 459][Stage 149:=========>   (328 + 0) / 459][Stage 150:=========>   (319 + 4) / 459][Stage 149:=========>   (328 + 0) / 459][Stage 150:=========>   (326 + 2) / 459][Stage 149:=========>   (328 + 0) / 459][Stage 150:=========>   (328 + 0) / 459][Stage 149:========>   (328 + 55) / 459][Stage 150:=========>   (328 + 3) / 459][Stage 149:=========>  (378 + 31) / 459][Stage 150:========>   (332 + 22) / 459][Stage 149:==========> (407 + 11) / 459][Stage 150:=========>  (361 + 25) / 459][Stage 149:===========> (417 + 6) / 459][Stage 150:==========> (392 + 11) / 459][Stage 149:===========> (422 + 1) / 459][Stage 150:==========> (405 + 10) / 459][Stage 149:===========> (422 + 1) / 459][Stage 150:===========> (418 + 5) / 459][Stage 149:===========> (423 + 0) / 459][Stage 150:===========> (422 + 1) / 459][Stage 149:===========> (423 + 0) / 459][Stage 150:===========> (423 + 0) / 459][Stage 149:===========>(423 + 36) / 459][Stage 150:===========>(423 + 36) / 459][Stage 149:===========>(448 + 11) / 459][Stage 150:===========>(447 + 12) / 459][Stage 149:============>(457 + 2) / 459][Stage 150:============>(458 + 1) / 459][Stage 149:====================================================>(457 + 2) / 459][Stage 149:============>(457 + 2) / 459][Stage 152:============>(196 + 4) / 200][Stage 156:==============================================>     (178 + 22) / 200][Stage 156:====================================================>(197 + 3) / 200]                                                                                [Stage 163:>            (0 + 128) / 514][Stage 164:>              (0 + 0) / 514][Stage 163:>           (15 + 128) / 514][Stage 164:>              (0 + 0) / 514][Stage 163:=>          (47 + 128) / 514][Stage 164:>              (0 + 0) / 514][Stage 163:=>          (52 + 128) / 514][Stage 164:>              (0 + 0) / 514][Stage 163:=>          (74 + 128) / 514][Stage 164:>              (0 + 0) / 514][Stage 163:==>        (110 + 123) / 514][Stage 164:>              (0 + 5) / 514][Stage 163:==>        (138 + 123) / 514][Stage 164:>              (0 + 6) / 514][Stage 163:=====>      (254 + 76) / 514][Stage 164:>             (0 + 52) / 514][Stage 163:=======>    (315 + 46) / 514][Stage 164:>             (3 + 82) / 514][Stage 163:========>   (350 + 21) / 514][Stage 164:>           (23 + 107) / 514][Stage 163:=========>   (367 + 4) / 514][Stage 164:=>          (71 + 121) / 514][Stage 163:=========>   (369 + 2) / 514][Stage 164:===>        (141 + 95) / 514][Stage 163:=========>   (370 + 1) / 514][Stage 164:=====>      (217 + 69) / 514][Stage 163:=========>   (370 + 1) / 514][Stage 164:======>     (267 + 48) / 514][Stage 163:=========>   (371 + 0) / 514][Stage 164:=======>    (303 + 27) / 514][Stage 163:=========>   (371 + 0) / 514][Stage 164:=======>    (327 + 22) / 514][Stage 163:=========>   (371 + 0) / 514][Stage 164:=======>    (342 + 19) / 514][Stage 163:=========>   (371 + 0) / 514][Stage 164:========>   (359 + 12) / 514][Stage 163:=========>   (371 + 0) / 514][Stage 164:=========>   (369 + 2) / 514][Stage 163:=========>   (371 + 0) / 514][Stage 164:=========>   (370 + 1) / 514][Stage 163:=========>   (371 + 0) / 514][Stage 164:=========>   (371 + 0) / 514][Stage 163:========>   (371 + 60) / 514][Stage 164:=========>   (371 + 0) / 514][Stage 163:==========> (445 + 36) / 514][Stage 164:=========>   (371 + 0) / 514][Stage 163:============>(481 + 9) / 514][Stage 164:=========>   (371 + 0) / 514][Stage 163:============>(490 + 0) / 514][Stage 164:=========>   (371 + 0) / 514][Stage 163:============>(490 + 0) / 514][Stage 164:========>   (371 + 60) / 514][Stage 163:============>(490 + 0) / 514][Stage 164:==========> (435 + 40) / 514][Stage 163:============>(490 + 0) / 514][Stage 164:===========>(474 + 11) / 514][Stage 163:============>(490 + 0) / 514][Stage 164:============>(482 + 8) / 514][Stage 163:============>(490 + 0) / 514][Stage 164:============>(486 + 4) / 514][Stage 163:============>(490 + 0) / 514][Stage 164:============>(487 + 3) / 514][Stage 163:============>(490 + 0) / 514][Stage 164:============>(489 + 1) / 514][Stage 163:============>(490 + 0) / 514][Stage 164:============>(490 + 0) / 514][Stage 163:===========>(491 + 23) / 514][Stage 164:============>(490 + 0) / 514][Stage 163:============>(509 + 5) / 514][Stage 164:============>(490 + 0) / 514][Stage 164:==================================================>  (490 + 0) / 514][Stage 164:=================================================>  (491 + 23) / 514][Stage 164:====================================================>(506 + 8) / 514][Stage 164:====================================================>(512 + 2) / 514][Stage 170:==================================================>  (192 + 8) / 200][Stage 170:===================================================> (195 + 5) / 200][Stage 170:===================================================> (196 + 4) / 200]                                                                                [Stage 176:===>       (153 + 114) / 514][Stage 177:>             (1 + 14) / 514][Stage 176:=====>      (246 + 87) / 514][Stage 177:>            (21 + 41) / 514][Stage 176:=======>    (323 + 33) / 514][Stage 177:==>          (86 + 92) / 514][Stage 176:========>   (346 + 16) / 514][Stage 177:====>       (208 + 58) / 514][Stage 176:========>   (357 + 12) / 514][Stage 177:======>     (283 + 36) / 514][Stage 176:=========>   (366 + 5) / 514][Stage 177:=======>    (311 + 21) / 514][Stage 176:=========>   (369 + 2) / 514][Stage 177:=======>    (333 + 11) / 514][Stage 176:=========>   (371 + 0) / 514][Stage 177:========>    (345 + 9) / 514][Stage 176:=========>   (371 + 0) / 514][Stage 177:========>    (354 + 6) / 514][Stage 176:=========>   (371 + 0) / 514][Stage 177:=========>   (359 + 6) / 514][Stage 176:=========>   (371 + 0) / 514][Stage 177:=========>   (360 + 6) / 514][Stage 176:=========>   (371 + 0) / 514][Stage 177:=========>   (367 + 4) / 514][Stage 176:=========>   (371 + 0) / 514][Stage 177:=========>   (370 + 1) / 514][Stage 176:=========>   (371 + 0) / 514][Stage 177:=========>   (371 + 0) / 514][Stage 176:========>   (371 + 60) / 514][Stage 177:=========>   (371 + 0) / 514][Stage 176:==========> (443 + 38) / 514][Stage 177:========>   (383 + 14) / 514][Stage 176:============>(482 + 8) / 514][Stage 177:=========>  (410 + 35) / 514][Stage 176:============>(490 + 0) / 514][Stage 177:==========> (456 + 25) / 514][Stage 176:============>(490 + 0) / 514][Stage 177:============>(483 + 5) / 514][Stage 176:============>(490 + 0) / 514][Stage 177:============>(488 + 2) / 514][Stage 176:============>(490 + 0) / 514][Stage 177:============>(489 + 1) / 514][Stage 176:============>(490 + 0) / 514][Stage 177:============>(490 + 0) / 514][Stage 176:===========>(491 + 23) / 514][Stage 177:============>(490 + 4) / 514][Stage 176:============>(511 + 3) / 514][Stage 177:===========>(499 + 15) / 514][Stage 177:====================================================>(512 + 2) / 514][Stage 183:===================================================> (196 + 4) / 200]                                                                                [Stage 190:========>    (162 + 5) / 252][Stage 191:======>     (143 + 14) / 252][Stage 190:========>    (165 + 2) / 252][Stage 191:========>    (156 + 5) / 252][Stage 190:========>    (167 + 0) / 252][Stage 191:========>    (164 + 3) / 252][Stage 190:========>    (167 + 0) / 252][Stage 191:========>    (167 + 0) / 252][Stage 190:=======>    (167 + 52) / 252][Stage 191:========>    (167 + 4) / 252][Stage 190:==========> (224 + 11) / 252][Stage 191:========>   (183 + 32) / 252][Stage 190:============>(233 + 2) / 252][Stage 191:==========> (225 + 10) / 252][Stage 190:============>(235 + 0) / 252][Stage 191:============>(234 + 1) / 252][Stage 190:============>(235 + 0) / 252][Stage 191:============>(235 + 0) / 252][Stage 190:===========>(235 + 17) / 252][Stage 191:===========>(235 + 17) / 252][Stage 190:============>(247 + 5) / 252][Stage 191:============>(246 + 6) / 252][Stage 190:============>(249 + 3) / 252][Stage 191:============>(249 + 3) / 252][Stage 190:============>(250 + 2) / 252][Stage 191:============>(250 + 2) / 252][Stage 190:====================================================>(250 + 2) / 252][Stage 190:====================================================>(251 + 1) / 252][Stage 190:============>(251 + 1) / 252][Stage 193:=============>(97 + 3) / 100][Stage 190:====================================================>(251 + 1) / 252][Stage 197:====================================================>(198 + 2) / 200][Stage 197:====================================================>(199 + 1) / 200]                                                                                [Stage 203:>            (0 + 118) / 252][Stage 204:>             (0 + 10) / 252][Stage 203:=====>      (112 + 51) / 252][Stage 204:>            (16 + 61) / 252][Stage 203:=======>    (152 + 15) / 252][Stage 204:====>        (86 + 61) / 252][Stage 203:=======>    (162 + 15) / 252][Stage 204:======>     (139 + 22) / 252][Stage 203:========>   (179 + 18) / 252][Stage 204:=======>    (153 + 10) / 252][Stage 203:=========>  (194 + 12) / 252][Stage 204:========>    (157 + 6) / 252][Stage 203:==========>  (201 + 8) / 252][Stage 204:========>    (158 + 5) / 252][Stage 203:==========>  (203 + 7) / 252][Stage 204:========>    (158 + 6) / 252][Stage 203:=========>  (208 + 23) / 252][Stage 204:========>    (166 + 1) / 252][Stage 203:============>(235 + 0) / 252][Stage 204:========>    (167 + 0) / 252][Stage 203:============>(235 + 0) / 252][Stage 204:=======>    (167 + 52) / 252][Stage 203:============>(249 + 3) / 252][Stage 204:==========> (224 + 11) / 252][Stage 203:============>(251 + 1) / 252][Stage 204:============>(234 + 1) / 252][Stage 204:=================================================>   (235 + 0) / 252][Stage 204:================================================>   (235 + 17) / 252][Stage 204:====================================================>(248 + 4) / 252][Stage 204:====================================================>(251 + 1) / 252][Stage 210:===================================================> (195 + 5) / 200]                                                                                [Stage 217:=======>    (163 + 17) / 245][Stage 218:====>        (80 + 40) / 245][Stage 217:=========>   (174 + 9) / 245][Stage 218:======>     (127 + 20) / 245][Stage 217:=========>   (182 + 2) / 245][Stage 218:=======>    (143 + 13) / 245][Stage 217:=========>   (183 + 1) / 245][Stage 218:=======>    (159 + 10) / 245][Stage 217:=========>   (183 + 1) / 245][Stage 218:=========>   (175 + 8) / 245][Stage 217:=========>   (183 + 1) / 245][Stage 218:=========>   (182 + 2) / 245][Stage 217:=========>   (184 + 0) / 245][Stage 218:=========>   (183 + 1) / 245][Stage 217:=========>   (184 + 0) / 245][Stage 218:=========>   (184 + 0) / 245][Stage 217:=========>  (185 + 41) / 245][Stage 218:=========>  (184 + 14) / 245][Stage 217:===========> (223 + 9) / 245][Stage 218:==========> (211 + 13) / 245][Stage 217:============>(230 + 2) / 245][Stage 218:===========> (225 + 7) / 245][Stage 217:============>(232 + 0) / 245][Stage 218:============>(231 + 1) / 245][Stage 217:============>(232 + 0) / 245][Stage 218:============>(232 + 0) / 245][Stage 217:===========>(232 + 13) / 245][Stage 218:===========>(233 + 12) / 245][Stage 217:============>(242 + 3) / 245][Stage 218:============>(241 + 4) / 245][Stage 217:============>(244 + 1) / 245][Stage 218:============>(244 + 1) / 245][Stage 224:====================================================>(198 + 2) / 200]                                                                                [Stage 230:========>   (167 + 16) / 245][Stage 231:=====>      (116 + 29) / 245][Stage 230:=========>   (177 + 7) / 245][Stage 231:======>     (141 + 14) / 245][Stage 230:=========>   (179 + 5) / 245][Stage 231:=======>    (157 + 11) / 245][Stage 230:=========>   (179 + 5) / 245][Stage 231:=========>   (174 + 8) / 245][Stage 230:=========>   (181 + 3) / 245][Stage 231:=========>   (181 + 3) / 245][Stage 230:=========>   (181 + 3) / 245][Stage 231:=========>   (183 + 1) / 245][Stage 230:=========>   (184 + 0) / 245][Stage 231:=========>   (184 + 0) / 245][Stage 230:==========> (205 + 26) / 245][Stage 231:=========>  (186 + 23) / 245][Stage 230:===========> (225 + 7) / 245][Stage 231:==========> (215 + 13) / 245][Stage 230:===========> (226 + 6) / 245][Stage 231:===========> (225 + 7) / 245][Stage 230:============>(227 + 5) / 245][Stage 231:============>(227 + 5) / 245][Stage 230:============>(227 + 5) / 245][Stage 231:============>(228 + 4) / 245][Stage 230:============>(231 + 1) / 245][Stage 231:============>(232 + 0) / 245][Stage 230:============>(232 + 0) / 245][Stage 231:============>(232 + 0) / 245][Stage 230:===========>(235 + 10) / 245][Stage 231:===========>(235 + 10) / 245][Stage 230:============>(242 + 3) / 245][Stage 231:============>(241 + 4) / 245][Stage 230:============>(244 + 1) / 245][Stage 231:============>(244 + 1) / 245][Stage 237:===================================================> (196 + 4) / 200]                                                                                [Stage 244:>            (0 + 128) / 884][Stage 245:>              (0 + 0) / 884][Stage 244:>           (33 + 128) / 884][Stage 245:>              (0 + 0) / 884][Stage 244:>           (36 + 128) / 884][Stage 245:>              (0 + 0) / 884][Stage 244:=>          (98 + 128) / 884][Stage 245:>              (0 + 0) / 884][Stage 244:===>       (271 + 118) / 884][Stage 245:>             (0 + 10) / 884][Stage 244:=====>      (400 + 81) / 884][Stage 245:>            (35 + 47) / 884][Stage 244:======>     (474 + 58) / 884][Stage 245:=>          (101 + 69) / 884][Stage 244:=======>    (530 + 29) / 884][Stage 245:==>         (189 + 76) / 884][Stage 244:=======>    (553 + 18) / 884][Stage 245:===>        (292 + 68) / 884][Stage 244:========>    (569 + 9) / 884][Stage 245:=====>      (377 + 49) / 884][Stage 244:========>    (578 + 6) / 884][Stage 245:=====>      (439 + 35) / 884][Stage 244:========>    (582 + 6) / 884][Stage 245:======>     (479 + 25) / 884][Stage 244:========>    (585 + 5) / 884][Stage 245:======>     (502 + 11) / 884][Stage 244:========>    (588 + 2) / 884][Stage 245:=======>     (518 + 6) / 884][Stage 244:========>    (590 + 0) / 884][Stage 245:=======>     (532 + 8) / 884][Stage 244:========>    (590 + 0) / 884][Stage 245:========>    (545 + 8) / 884][Stage 244:========>    (590 + 0) / 884][Stage 245:========>    (556 + 4) / 884][Stage 244:========>    (590 + 0) / 884][Stage 245:========>    (557 + 4) / 884][Stage 244:========>    (590 + 0) / 884][Stage 245:========>    (565 + 4) / 884][Stage 244:========>    (590 + 4) / 884][Stage 245:========>    (574 + 0) / 884][Stage 244:========>   (633 + 59) / 884][Stage 245:========>    (574 + 0) / 884][Stage 244:=========>  (694 + 46) / 884][Stage 245:========>    (574 + 2) / 884][Stage 244:==========> (741 + 39) / 884][Stage 245:=======>    (579 + 13) / 884][Stage 244:==========> (774 + 26) / 884][Stage 245:========>   (596 + 24) / 884][Stage 244:==========> (798 + 16) / 884][Stage 245:========>   (630 + 30) / 884][Stage 244:===========>(812 + 10) / 884][Stage 245:=========>  (682 + 39) / 884][Stage 244:============>(824 + 2) / 884][Stage 245:=========>  (732 + 25) / 884][Stage 244:============>(826 + 0) / 884][Stage 245:==========> (764 + 20) / 884][Stage 244:============>(826 + 0) / 884][Stage 245:==========> (789 + 14) / 884][Stage 244:============>(826 + 0) / 884][Stage 245:===========> (805 + 8) / 884][Stage 244:============>(826 + 0) / 884][Stage 245:============>(816 + 8) / 884][Stage 244:============>(826 + 0) / 884][Stage 245:============>(825 + 1) / 884][Stage 244:============>(826 + 0) / 884][Stage 245:============>(826 + 0) / 884][Stage 244:===========>(841 + 43) / 884][Stage 245:============>(826 + 0) / 884][Stage 244:===========>(870 + 14) / 884][Stage 245:============>(826 + 0) / 884][Stage 244:============>(877 + 7) / 884][Stage 245:===========>(829 + 26) / 884][Stage 244:============>(880 + 4) / 884][Stage 245:===========>(852 + 32) / 884][Stage 244:============>(880 + 4) / 884][Stage 245:===========>(864 + 20) / 884][Stage 244:============>(882 + 2) / 884][Stage 245:===========>(873 + 11) / 884][Stage 244:============>(883 + 1) / 884][Stage 245:============>(878 + 6) / 884][Stage 244:============>(883 + 1) / 884][Stage 245:============>(882 + 2) / 884][Stage 244:====================================================>(883 + 1) / 884][Stage 247:==================================================>  (192 + 8) / 200][Stage 247:===================================================> (196 + 4) / 200][Stage 247:====================================================>(199 + 1) / 200][Stage 251:=================================================>  (190 + 10) / 200][Stage 251:==================================================>  (192 + 8) / 200][Stage 251:====================================================>(197 + 3) / 200]                                                                                [Stage 257:=====>      (436 + 67) / 884][Stage 258:>            (53 + 61) / 884][Stage 257:======>     (482 + 44) / 884][Stage 258:=>          (107 + 84) / 884][Stage 257:======>     (505 + 34) / 884][Stage 258:==>         (163 + 82) / 884][Stage 257:=======>    (524 + 29) / 884][Stage 258:===>        (226 + 65) / 884][Stage 257:=======>    (539 + 22) / 884][Stage 258:===>        (281 + 60) / 884][Stage 257:=======>    (554 + 15) / 884][Stage 258:====>       (329 + 50) / 884][Stage 257:=======>    (562 + 12) / 884][Stage 258:====>       (361 + 42) / 884][Stage 257:=======>    (568 + 10) / 884][Stage 258:=====>      (402 + 33) / 884][Stage 257:========>    (578 + 5) / 884][Stage 258:======>     (450 + 30) / 884][Stage 257:========>    (582 + 4) / 884][Stage 258:======>     (477 + 22) / 884][Stage 257:========>    (584 + 4) / 884][Stage 258:======>     (499 + 13) / 884][Stage 257:========>    (587 + 3) / 884][Stage 258:=======>     (514 + 8) / 884][Stage 257:========>    (590 + 0) / 884][Stage 258:=======>     (528 + 9) / 884][Stage 257:========>    (590 + 0) / 884][Stage 258:=======>     (540 + 9) / 884][Stage 257:========>    (590 + 7) / 884][Stage 258:========>    (547 + 2) / 884][Stage 257:========>    (598 + 7) / 884][Stage 258:========>    (548 + 1) / 884][Stage 257:========>   (638 + 58) / 884][Stage 258:========>    (548 + 1) / 884][Stage 257:=========>  (701 + 45) / 884][Stage 258:=======>    (556 + 19) / 884][Stage 257:==========> (751 + 38) / 884][Stage 258:=======>    (579 + 15) / 884][Stage 257:==========> (789 + 21) / 884][Stage 258:========>   (605 + 30) / 884][Stage 257:==========> (807 + 13) / 884][Stage 258:========>   (636 + 32) / 884][Stage 257:============>(823 + 3) / 884][Stage 258:=========>  (674 + 41) / 884][Stage 257:============>(824 + 2) / 884][Stage 258:=========>  (727 + 35) / 884][Stage 257:============>(825 + 1) / 884][Stage 258:==========> (760 + 21) / 884][Stage 257:============>(825 + 1) / 884][Stage 258:==========> (778 + 17) / 884][Stage 257:============>(825 + 1) / 884][Stage 258:==========> (794 + 11) / 884][Stage 257:============>(825 + 1) / 884][Stage 258:===========> (801 + 9) / 884][Stage 257:============>(826 + 0) / 884][Stage 258:==========> (810 + 10) / 884][Stage 257:============>(826 + 0) / 884][Stage 258:============>(819 + 6) / 884][Stage 257:============>(832 + 8) / 884][Stage 258:============>(824 + 1) / 884][Stage 257:===========>(841 + 12) / 884][Stage 258:============>(825 + 0) / 884][Stage 257:===========>(862 + 22) / 884][Stage 258:============>(825 + 1) / 884][Stage 257:============>(878 + 6) / 884][Stage 258:===========>(841 + 43) / 884][Stage 257:============>(879 + 5) / 884][Stage 258:===========>(866 + 18) / 884][Stage 257:============>(882 + 2) / 884][Stage 258:============>(876 + 8) / 884][Stage 257:============>(882 + 2) / 884][Stage 258:============>(877 + 7) / 884][Stage 257:============>(883 + 1) / 884][Stage 258:============>(879 + 5) / 884][Stage 258:====================================================>(879 + 5) / 884][Stage 258:====================================================>(882 + 2) / 884][Stage 260:==================================================>  (191 + 9) / 200][Stage 264:================================================>   (185 + 15) / 200][Stage 264:================================================>   (188 + 12) / 200][Stage 264:===================================================> (194 + 6) / 200]                                                                                [Stage 271:========>     (79 + 2) / 133][Stage 272:========>     (77 + 4) / 133][Stage 271:========>     (80 + 1) / 133][Stage 272:========>     (81 + 0) / 133][Stage 271:========>     (81 + 0) / 133][Stage 272:========>     (81 + 0) / 133][Stage 271:=========>  (104 + 14) / 133][Stage 272:==========>  (107 + 3) / 133][Stage 271:==========>  (112 + 6) / 133][Stage 272:==========>  (110 + 2) / 133][Stage 271:===========> (118 + 0) / 133][Stage 272:===========> (118 + 0) / 133][Stage 271:==========> (118 + 15) / 133][Stage 272:==========> (118 + 15) / 133][Stage 271:============>(131 + 2) / 133][Stage 272:============>(132 + 1) / 133][Stage 272:====================================================>(132 + 1) / 133]                                                                                [Stage 284:========>     (76 + 5) / 133][Stage 285:========>     (78 + 1) / 133][Stage 284:========>     (80 + 1) / 133][Stage 285:========>     (81 + 0) / 133][Stage 284:========>     (81 + 0) / 133][Stage 285:========>     (81 + 0) / 133][Stage 284:=========>  (105 + 13) / 133][Stage 285:==========>  (109 + 1) / 133][Stage 284:===========> (116 + 2) / 133][Stage 285:===========> (114 + 2) / 133][Stage 284:===========> (118 + 0) / 133][Stage 285:===========> (118 + 0) / 133][Stage 284:============>(126 + 7) / 133][Stage 285:============>(129 + 4) / 133][Stage 284:====================================================>(131 + 2) / 133]                                                                                [Stage 298:======>     (252 + 39) / 459][Stage 299:==>         (108 + 53) / 459][Stage 298:=======>    (290 + 20) / 459][Stage 299:====>       (178 + 41) / 459][Stage 298:========>    (315 + 5) / 459][Stage 299:=====>      (228 + 32) / 459][Stage 298:=========>   (320 + 5) / 459][Stage 299:======>     (262 + 25) / 459][Stage 298:=========>   (327 + 1) / 459][Stage 299:=======>    (289 + 11) / 459][Stage 298:=========>   (328 + 0) / 459][Stage 299:========>    (302 + 6) / 459][Stage 298:=========>   (328 + 0) / 459][Stage 299:========>    (310 + 5) / 459][Stage 298:=========>   (328 + 0) / 459][Stage 299:========>    (317 + 4) / 459][Stage 298:=========>   (328 + 0) / 459][Stage 299:=========>   (325 + 3) / 459][Stage 298:=========>   (328 + 0) / 459][Stage 299:=========>   (328 + 0) / 459][Stage 298:========>   (328 + 55) / 459][Stage 299:=========>   (328 + 3) / 459][Stage 298:=========>  (381 + 27) / 459][Stage 299:========>   (331 + 25) / 459][Stage 298:===========> (413 + 8) / 459][Stage 299:=========>  (366 + 27) / 459][Stage 298:===========> (422 + 1) / 459][Stage 299:==========> (393 + 13) / 459][Stage 298:===========> (422 + 1) / 459][Stage 299:===========> (409 + 9) / 459][Stage 298:===========> (422 + 1) / 459][Stage 299:===========> (418 + 5) / 459][Stage 298:===========> (423 + 0) / 459][Stage 299:===========> (423 + 0) / 459][Stage 298:===========>(423 + 36) / 459][Stage 299:===========>(423 + 36) / 459][Stage 298:===========>(441 + 18) / 459][Stage 299:============>(450 + 9) / 459][Stage 298:====================================================>(456 + 3) / 459][Stage 298:====================================================>(458 + 1) / 459][Stage 305:==================================================>  (192 + 8) / 200][Stage 305:===================================================> (196 + 4) / 200]                                                                                [Stage 311:=======>    (282 + 28) / 459][Stage 312:===>        (125 + 61) / 459][Stage 311:========>    (308 + 7) / 459][Stage 312:=====>      (202 + 53) / 459][Stage 311:=========>   (319 + 4) / 459][Stage 312:======>     (259 + 24) / 459][Stage 311:=========>   (325 + 3) / 459][Stage 312:=======>    (283 + 13) / 459][Stage 311:=========>   (328 + 0) / 459][Stage 312:========>    (295 + 7) / 459][Stage 311:=========>   (328 + 0) / 459][Stage 312:========>    (306 + 4) / 459][Stage 311:=========>   (328 + 0) / 459][Stage 312:========>    (314 + 4) / 459][Stage 311:=========>   (328 + 0) / 459][Stage 312:=========>   (321 + 4) / 459][Stage 311:=========>   (328 + 0) / 459][Stage 312:=========>   (327 + 1) / 459][Stage 311:=========>   (328 + 0) / 459][Stage 312:=========>   (328 + 0) / 459][Stage 311:========>   (328 + 55) / 459][Stage 312:=========>   (328 + 0) / 459][Stage 311:==========> (383 + 26) / 459][Stage 312:========>   (328 + 29) / 459][Stage 311:===========> (411 + 8) / 459][Stage 312:=========>  (374 + 20) / 459][Stage 311:===========> (423 + 0) / 459][Stage 312:==========> (395 + 11) / 459][Stage 311:===========> (423 + 0) / 459][Stage 312:==========> (406 + 11) / 459][Stage 311:===========> (423 + 0) / 459][Stage 312:===========> (417 + 6) / 459][Stage 311:===========> (423 + 0) / 459][Stage 312:===========> (420 + 3) / 459][Stage 311:===========> (423 + 0) / 459][Stage 312:===========> (423 + 0) / 459][Stage 311:===========>(423 + 36) / 459][Stage 312:===========> (423 + 0) / 459][Stage 311:===========>(423 + 36) / 459][Stage 312:===========>(423 + 36) / 459][Stage 311:============>(458 + 1) / 459][Stage 312:============>(454 + 5) / 459][Stage 312:====================================================>(458 + 1) / 459]                                                                                [Stage 325:========>                                           (81 + 119) / 514][Stage 325:====>       (205 + 96) / 514][Stage 326:>             (0 + 32) / 514][Stage 325:======>     (284 + 59) / 514][Stage 326:>             (4 + 69) / 514][Stage 325:=======>    (330 + 27) / 514][Stage 326:>           (18 + 100) / 514][Stage 325:========>   (351 + 13) / 514][Stage 326:=>          (53 + 106) / 514][Stage 325:========>   (357 + 12) / 514][Stage 326:===>        (131 + 91) / 514][Stage 325:=========>   (363 + 8) / 514][Stage 326:=====>      (219 + 59) / 514][Stage 325:=========>   (367 + 4) / 514][Stage 326:======>     (261 + 42) / 514][Stage 325:=========>   (367 + 4) / 514][Stage 326:======>     (293 + 24) / 514][Stage 325:=========>   (368 + 3) / 514][Stage 326:=======>    (309 + 17) / 514][Stage 325:=========>   (370 + 1) / 514][Stage 326:=======>    (316 + 17) / 514][Stage 325:=========>   (370 + 1) / 514][Stage 326:=======>    (324 + 15) / 514][Stage 325:=========>   (370 + 1) / 514][Stage 326:=======>    (337 + 12) / 514][Stage 325:=========>   (371 + 0) / 514][Stage 326:========>    (348 + 7) / 514][Stage 325:=========>   (371 + 0) / 514][Stage 326:=========>   (358 + 5) / 514][Stage 325:=========>   (371 + 2) / 514][Stage 326:=========>   (365 + 2) / 514][Stage 325:=========>   (373 + 4) / 514][Stage 326:=========>   (367 + 0) / 514][Stage 325:=========>   (377 + 4) / 514][Stage 326:=========>   (367 + 0) / 514][Stage 325:=========>   (382 + 0) / 514][Stage 326:=========>   (367 + 4) / 514][Stage 325:========>   (382 + 30) / 514][Stage 326:=========>   (373 + 4) / 514][Stage 325:==========> (430 + 40) / 514][Stage 326:========>   (379 + 19) / 514][Stage 325:============>(479 + 9) / 514][Stage 326:=========>  (403 + 31) / 514][Stage 325:============>(489 + 1) / 514][Stage 326:==========> (445 + 32) / 514][Stage 325:============>(490 + 0) / 514][Stage 326:============>(481 + 7) / 514][Stage 325:============>(490 + 0) / 514][Stage 326:============>(487 + 3) / 514][Stage 325:============>(490 + 0) / 514][Stage 326:============>(489 + 1) / 514][Stage 325:============>(490 + 0) / 514][Stage 326:============>(490 + 0) / 514][Stage 325:===========>(490 + 24) / 514][Stage 326:===========>(490 + 24) / 514][Stage 325:===========>(504 + 10) / 514][Stage 326:===========>(501 + 13) / 514][Stage 325:============>(512 + 2) / 514][Stage 326:============>(511 + 3) / 514][Stage 326:====================================================>(513 + 1) / 514][Stage 332:==================================================>  (192 + 8) / 200][Stage 332:===================================================> (193 + 7) / 200][Stage 332:===================================================> (195 + 5) / 200]                                                                                [Stage 338:==>        (102 + 122) / 514][Stage 339:>              (0 + 7) / 514][Stage 338:====>       (212 + 95) / 514][Stage 339:>            (14 + 33) / 514][Stage 338:======>     (293 + 51) / 514][Stage 339:==>          (80 + 63) / 514][Stage 338:=======>    (329 + 23) / 514][Stage 339:===>        (165 + 72) / 514][Stage 338:========>   (349 + 14) / 514][Stage 339:=====>      (251 + 51) / 514][Stage 338:========>   (361 + 10) / 514][Stage 339:======>     (296 + 18) / 514][Stage 338:=========>   (368 + 3) / 514][Stage 339:=======>    (313 + 11) / 514][Stage 338:=========>   (370 + 1) / 514][Stage 339:=======>    (330 + 12) / 514][Stage 338:=========>   (370 + 1) / 514][Stage 339:=======>    (338 + 10) / 514][Stage 338:=========>   (371 + 0) / 514][Stage 339:========>    (349 + 8) / 514][Stage 338:=========>   (371 + 0) / 514][Stage 339:=========>   (360 + 6) / 514][Stage 338:=========>   (371 + 0) / 514][Stage 339:=========>   (366 + 5) / 514][Stage 338:=========>   (371 + 0) / 514][Stage 339:=========>   (370 + 1) / 514][Stage 338:=========>   (371 + 0) / 514][Stage 339:=========>   (371 + 0) / 514][Stage 338:========>   (371 + 61) / 514][Stage 339:=========>   (371 + 0) / 514][Stage 338:==========> (432 + 41) / 514][Stage 339:========>   (371 + 15) / 514][Stage 338:===========>(478 + 10) / 514][Stage 339:=========>  (397 + 39) / 514][Stage 338:============>(490 + 0) / 514][Stage 339:==========> (453 + 29) / 514][Stage 338:============>(490 + 0) / 514][Stage 339:============>(484 + 4) / 514][Stage 338:============>(490 + 0) / 514][Stage 339:============>(490 + 0) / 514][Stage 338:===========>(490 + 24) / 514][Stage 339:============>(490 + 0) / 514][Stage 338:============>(509 + 5) / 514][Stage 339:===========>(490 + 24) / 514][Stage 338:============>(513 + 1) / 514][Stage 339:============>(509 + 5) / 514][Stage 339:====================================================>(513 + 1) / 514][Stage 345:===================================================> (195 + 5) / 200][Stage 345:===================================================> (196 + 4) / 200]                                                                                [Stage 352:========>    (165 + 2) / 252][Stage 353:======>     (138 + 24) / 252][Stage 352:========>    (167 + 0) / 252][Stage 353:========>    (164 + 3) / 252][Stage 352:========>    (167 + 0) / 252][Stage 353:========>    (167 + 0) / 252][Stage 352:=======>    (167 + 51) / 252][Stage 353:========>    (167 + 5) / 252][Stage 352:==========> (210 + 25) / 252][Stage 353:========>   (170 + 27) / 252][Stage 352:===========> (231 + 4) / 252][Stage 353:=========>  (207 + 26) / 252][Stage 352:============>(235 + 0) / 252][Stage 353:============>(233 + 2) / 252][Stage 352:============>(235 + 0) / 252][Stage 353:============>(235 + 0) / 252][Stage 352:===========>(235 + 17) / 252][Stage 353:============>(235 + 0) / 252][Stage 352:============>(248 + 4) / 252][Stage 353:===========>(239 + 13) / 252][Stage 352:============>(251 + 1) / 252][Stage 353:============>(246 + 6) / 252][Stage 353:====================================================>(248 + 4) / 252][Stage 353:====================================================>(249 + 3) / 252][Stage 353:====================================================>(251 + 1) / 252][Stage 359:====================================================>(199 + 1) / 200]                                                                                [Stage 365:==================================>                  (163 + 4) / 252][Stage 365:========>    (166 + 1) / 252][Stage 366:========>    (161 + 6) / 252][Stage 365:========>    (166 + 1) / 252][Stage 366:========>    (166 + 1) / 252][Stage 365:========>    (167 + 0) / 252][Stage 366:========>    (166 + 1) / 252][Stage 365:========>    (167 + 0) / 252][Stage 366:========>    (167 + 0) / 252][Stage 365:=======>    (167 + 52) / 252][Stage 366:========>    (167 + 4) / 252][Stage 365:==========> (215 + 20) / 252][Stage 366:========>   (172 + 31) / 252][Stage 365:============>(233 + 2) / 252][Stage 366:==========> (215 + 16) / 252][Stage 365:============>(234 + 1) / 252][Stage 366:===========> (231 + 4) / 252][Stage 365:============>(234 + 1) / 252][Stage 366:============>(235 + 0) / 252][Stage 365:============>(235 + 0) / 252][Stage 366:============>(235 + 0) / 252][Stage 365:===========>(235 + 17) / 252][Stage 366:===========>(235 + 17) / 252][Stage 365:============>(249 + 3) / 252][Stage 366:============>(249 + 3) / 252][Stage 365:============>(251 + 1) / 252][Stage 366:============>(251 + 1) / 252][Stage 372:===================================================> (196 + 4) / 200]                                                                                [Stage 379:========>   (165 + 14) / 245][Stage 380:=====>       (98 + 34) / 245][Stage 379:=========>   (177 + 6) / 245][Stage 380:======>     (134 + 16) / 245][Stage 379:=========>   (182 + 2) / 245][Stage 380:========>    (152 + 8) / 245][Stage 379:=========>   (183 + 1) / 245][Stage 380:========>    (165 + 9) / 245][Stage 379:=========>   (183 + 1) / 245][Stage 380:=========>   (175 + 6) / 245][Stage 379:=========>   (184 + 0) / 245][Stage 380:=========>   (182 + 2) / 245][Stage 379:=========>   (184 + 0) / 245][Stage 380:=========>   (184 + 0) / 245][Stage 379:=========>  (184 + 41) / 245][Stage 380:=========>  (184 + 13) / 245][Stage 379:===========> (224 + 8) / 245][Stage 380:=========>  (199 + 20) / 245][Stage 379:============>(231 + 1) / 245][Stage 380:===========> (221 + 9) / 245][Stage 379:============>(232 + 0) / 245][Stage 380:============>(229 + 3) / 245][Stage 379:============>(232 + 0) / 245][Stage 380:============>(231 + 1) / 245][Stage 379:============>(232 + 0) / 245][Stage 380:============>(232 + 0) / 245][Stage 379:===========>(232 + 13) / 245][Stage 380:===========>(232 + 13) / 245][Stage 379:============>(243 + 2) / 245][Stage 380:============>(243 + 2) / 245][Stage 380:====================================================>(244 + 1) / 245]                                                                                [Stage 392:=========>   (181 + 3) / 245][Stage 393:======>     (125 + 30) / 245][Stage 392:=========>   (183 + 1) / 245][Stage 393:=======>    (156 + 15) / 245][Stage 392:=========>   (183 + 1) / 245][Stage 393:=========>   (175 + 5) / 245][Stage 392:=========>   (184 + 0) / 245][Stage 393:=========>   (181 + 3) / 245][Stage 392:=========>   (184 + 0) / 245][Stage 393:=========>   (183 + 1) / 245][Stage 392:=========>   (184 + 0) / 245][Stage 393:=========>   (184 + 0) / 245][Stage 392:=========>  (184 + 41) / 245][Stage 393:=========>  (184 + 13) / 245][Stage 392:==========> (221 + 11) / 245][Stage 393:=========>  (196 + 22) / 245][Stage 392:============>(231 + 1) / 245][Stage 393:===========> (221 + 9) / 245][Stage 392:============>(232 + 0) / 245][Stage 393:============>(229 + 3) / 245][Stage 392:============>(232 + 0) / 245][Stage 393:============>(232 + 0) / 245][Stage 392:===========>(232 + 13) / 245][Stage 393:===========>(232 + 13) / 245][Stage 392:============>(242 + 3) / 245][Stage 393:============>(242 + 3) / 245][Stage 392:============>(244 + 1) / 245][Stage 393:============>(244 + 1) / 245][Stage 399:===================================================> (196 + 4) / 200]                                                                                [Stage 406:====================>                              (350 + 101) / 884][Stage 406:=====>      (430 + 64) / 884][Stage 407:>            (65 + 64) / 884][Stage 406:======>     (495 + 30) / 884][Stage 407:==>         (175 + 89) / 884][Stage 406:=======>    (523 + 23) / 884][Stage 407:===>        (281 + 58) / 884][Stage 406:=======>    (542 + 13) / 884][Stage 407:====>       (349 + 46) / 884][Stage 406:=======>    (555 + 10) / 884][Stage 407:=====>      (385 + 40) / 884][Stage 406:========>    (565 + 8) / 884][Stage 407:=====>      (428 + 35) / 884][Stage 406:========>    (572 + 8) / 884][Stage 407:======>     (460 + 24) / 884][Stage 406:========>    (580 + 8) / 884][Stage 407:=======>     (484 + 8) / 884][Stage 406:========>    (584 + 6) / 884][Stage 407:=======>     (489 + 5) / 884][Stage 406:========>    (588 + 2) / 884][Stage 407:=======>     (498 + 7) / 884][Stage 406:========>    (589 + 1) / 884][Stage 407:=======>     (512 + 7) / 884][Stage 406:========>    (589 + 1) / 884][Stage 407:=======>     (525 + 7) / 884][Stage 406:========>    (589 + 1) / 884][Stage 407:=======>     (538 + 7) / 884][Stage 406:========>    (590 + 0) / 884][Stage 407:========>    (553 + 8) / 884][Stage 406:========>    (593 + 8) / 884][Stage 407:========>    (562 + 0) / 884][Stage 406:========>    (602 + 8) / 884][Stage 407:========>    (562 + 0) / 884][Stage 406:========>   (611 + 63) / 884][Stage 407:========>    (562 + 1) / 884][Stage 406:=========>  (690 + 46) / 884][Stage 407:=======>    (572 + 18) / 884][Stage 406:==========> (752 + 31) / 884][Stage 407:========>   (596 + 21) / 884][Stage 406:==========> (783 + 17) / 884][Stage 407:========>   (627 + 32) / 884][Stage 406:==========> (803 + 15) / 884][Stage 407:=========>  (667 + 31) / 884][Stage 406:============>(819 + 5) / 884][Stage 407:=========>  (704 + 29) / 884][Stage 406:============>(825 + 1) / 884][Stage 407:==========> (744 + 17) / 884][Stage 406:============>(826 + 0) / 884][Stage 407:==========> (764 + 16) / 884][Stage 406:============>(826 + 0) / 884][Stage 407:==========> (784 + 15) / 884][Stage 406:============>(826 + 0) / 884][Stage 407:===========> (797 + 8) / 884][Stage 406:============>(826 + 0) / 884][Stage 407:===========> (807 + 8) / 884][Stage 406:============>(826 + 0) / 884][Stage 407:============>(816 + 6) / 884][Stage 406:============>(826 + 0) / 884][Stage 407:============>(819 + 6) / 884][Stage 406:============>(827 + 4) / 884][Stage 407:============>(824 + 2) / 884][Stage 406:============>(832 + 8) / 884][Stage 407:============>(826 + 0) / 884][Stage 406:===========>(845 + 39) / 884][Stage 407:============>(826 + 6) / 884][Stage 406:============>(875 + 9) / 884][Stage 407:===========>(842 + 42) / 884][Stage 406:============>(881 + 3) / 884][Stage 407:===========>(871 + 13) / 884][Stage 406:============>(881 + 3) / 884][Stage 407:===========>(874 + 10) / 884][Stage 406:============>(882 + 2) / 884][Stage 407:============>(876 + 8) / 884][Stage 406:============>(883 + 1) / 884][Stage 407:============>(883 + 1) / 884][Stage 409:===================================================> (196 + 4) / 200][Stage 409:====================================================>(198 + 2) / 200][Stage 413:===============================================>    (183 + 17) / 200][Stage 413:===================================================> (194 + 6) / 200][Stage 413:===================================================> (195 + 5) / 200][Stage 413:===================================================> (196 + 4) / 200][Stage 413:====================================================>(198 + 2) / 200][Stage 413:====================================================>(199 + 1) / 200]                                                                                [Stage 419:=======================>                            (400 + 76) / 884][Stage 419:======>     (481 + 49) / 884][Stage 420:=>          (117 + 79) / 884][Stage 419:=======>    (523 + 25) / 884][Stage 420:===>        (221 + 79) / 884][Stage 419:=======>    (543 + 11) / 884][Stage 420:====>       (325 + 50) / 884][Stage 419:========>    (560 + 8) / 884][Stage 420:=====>      (400 + 45) / 884][Stage 419:========>    (572 + 5) / 884][Stage 420:======>     (452 + 33) / 884][Stage 419:========>    (578 + 4) / 884][Stage 420:======>     (481 + 21) / 884][Stage 419:========>    (582 + 4) / 884][Stage 420:=======>     (500 + 7) / 884][Stage 419:========>    (586 + 4) / 884][Stage 420:=======>     (510 + 5) / 884][Stage 419:========>    (589 + 1) / 884][Stage 420:=======>     (522 + 8) / 884][Stage 419:========>    (590 + 0) / 884][Stage 420:=======>     (535 + 8) / 884][Stage 419:========>    (590 + 0) / 884][Stage 420:========>    (546 + 8) / 884][Stage 419:========>    (590 + 0) / 884][Stage 420:========>    (559 + 4) / 884][Stage 419:========>    (590 + 0) / 884][Stage 420:========>    (566 + 4) / 884][Stage 419:========>    (590 + 1) / 884][Stage 420:========>    (567 + 3) / 884][Stage 419:========>    (594 + 4) / 884][Stage 420:========>    (570 + 0) / 884][Stage 419:========>    (599 + 4) / 884][Stage 420:========>    (570 + 0) / 884][Stage 419:========>    (603 + 1) / 884][Stage 420:========>    (572 + 3) / 884][Stage 419:========>    (604 + 0) / 884][Stage 420:========>    (576 + 4) / 884][Stage 419:========>   (604 + 60) / 884][Stage 420:========>    (582 + 4) / 884][Stage 419:=========>  (690 + 44) / 884][Stage 420:=======>    (586 + 20) / 884][Stage 419:==========> (752 + 32) / 884][Stage 420:========>   (614 + 20) / 884][Stage 419:==========> (788 + 16) / 884][Stage 420:========>   (645 + 32) / 884][Stage 419:==========> (804 + 14) / 884][Stage 420:=========>  (678 + 28) / 884][Stage 419:============>(822 + 4) / 884][Stage 420:=========>  (709 + 32) / 884][Stage 419:============>(826 + 0) / 884][Stage 420:==========> (743 + 23) / 884][Stage 419:============>(826 + 0) / 884][Stage 420:==========> (771 + 18) / 884][Stage 419:============>(826 + 0) / 884][Stage 420:==========> (789 + 18) / 884][Stage 419:============>(826 + 0) / 884][Stage 420:===========> (808 + 8) / 884][Stage 419:============>(826 + 0) / 884][Stage 420:============>(820 + 4) / 884][Stage 419:============>(826 + 3) / 884][Stage 420:============>(823 + 1) / 884][Stage 419:============>(830 + 4) / 884][Stage 420:============>(824 + 0) / 884][Stage 419:============>(835 + 4) / 884][Stage 420:============>(824 + 0) / 884][Stage 419:============>(840 + 4) / 884][Stage 420:============>(824 + 0) / 884][Stage 419:===========>(844 + 40) / 884][Stage 420:===========>(824 + 60) / 884][Stage 419:===========>(868 + 16) / 884][Stage 420:===========>(858 + 26) / 884][Stage 419:============>(878 + 6) / 884][Stage 420:============>(877 + 7) / 884][Stage 419:============>(878 + 6) / 884][Stage 420:============>(881 + 3) / 884][Stage 419:============>(879 + 5) / 884][Stage 420:============>(882 + 2) / 884][Stage 419:============>(880 + 4) / 884][Stage 420:============>(883 + 1) / 884][Stage 419:====================================================>(882 + 2) / 884][Stage 419:====================================================>(883 + 1) / 884][Stage 426:===================================================> (193 + 7) / 200][Stage 426:===================================================> (194 + 6) / 200][Stage 426:====================================================>(198 + 2) / 200]                                                                                [Stage 433:>             (0 + 80) / 133][Stage 434:>             (0 + 43) / 133][Stage 433:=====>       (53 + 45) / 133][Stage 434:======>      (63 + 14) / 133][Stage 433:========>    (92 + 25) / 133][Stage 434:=========>   (93 + 10) / 133][Stage 433:==========>  (108 + 9) / 133][Stage 434:==========>  (108 + 2) / 133][Stage 433:===========> (117 + 1) / 133][Stage 434:===========> (117 + 1) / 133][Stage 433:===========> (117 + 1) / 133][Stage 434:===========> (118 + 0) / 133][Stage 433:===========> (118 + 0) / 133][Stage 434:===========> (118 + 0) / 133][Stage 433:============>(124 + 9) / 133][Stage 434:============>(124 + 9) / 133][Stage 434:====================================================>(131 + 2) / 133][Stage 434:====================================================>(132 + 1) / 133]                                                                                [Stage 446:========>     (80 + 1) / 133][Stage 447:========>     (79 + 2) / 133][Stage 446:========>     (81 + 0) / 133][Stage 447:========>     (81 + 0) / 133][Stage 446:=========>  (101 + 17) / 133][Stage 447:==========>  (103 + 7) / 133][Stage 446:==========>  (111 + 7) / 133][Stage 447:==========>  (108 + 2) / 133][Stage 446:===========> (113 + 5) / 133][Stage 447:==========>  (109 + 1) / 133][Stage 446:===========> (117 + 1) / 133][Stage 447:===========> (113 + 5) / 133][Stage 446:===========> (118 + 0) / 133][Stage 447:===========> (118 + 0) / 133][Stage 446:============>(124 + 9) / 133][Stage 447:============>(126 + 7) / 133][Stage 446:====================================================>(132 + 1) / 133]                                                                                



*************************************
******* Initializing Spark **********
*************************************




spark.app.id=application_1728468936023_18283
spark.app.name=TnP
spark.app.startTime=1729182080590
spark.app.submitTime=1729182080457
spark.authenticate=true
spark.blockManager.port=5101
spark.driver.appUIAddress=http://ithdp-client01.cern.ch:5201
spark.driver.extraJavaOptions=-Djava.net.preferIPv6Addresses=false -XX:+IgnoreUnrecognizedVMOptions --add-opens=java.base/java.lang=ALL-UNNAMED --add-opens=java.base/java.lang.invoke=ALL-UNNAMED --add-opens=java.base/java.lang.reflect=ALL-UNNAMED --add-opens=java.base/java.io=ALL-UNNAMED --add-opens=java.base/java.net=ALL-UNNAMED --add-opens=java.base/java.nio=ALL-UNNAMED --add-opens=java.base/java.util=ALL-UNNAMED --add-opens=java.base/java.util.concurrent=ALL-UNNAMED --add-opens=java.base/java.util.concurrent.atomic=ALL-UNNAMED --add-opens=java.base/sun.nio.ch=ALL-UNNAMED --add-opens=java.base/sun.nio.cs=ALL-UNNAMED --add-opens=java.base/sun.security.action=ALL-UNNAMED --add-opens=java.base/sun.util.calendar=ALL-UNNAMED --add-opens=java.security.jgss/sun.security.krb5=ALL-UNNAMED -Djdk.reflect.useDirectMethodHandle=false -XX:+UseG1GC
spark.driver.extraLibraryPath=/usr/hdp/hadoop/lib/native
spark.driver.host=ithdp-client01.cern.ch
spark.driver.memory=6g
spark.driver.port=5001
spark.dynamicAllocation.enabled=true
spark.dynamicAllocation.maxExecutors=32
spark.dynamicAllocation.minExecutors=1
spark.eventLog.dir=hdfs://analytix//var/log/spark-history
spark.eventLog.enabled=true
spark.executor.cores=4
spark.executor.extraJavaOptions=-Djava.net.preferIPv6Addresses=false -XX:+IgnoreUnrecognizedVMOptions --add-opens=java.base/java.lang=ALL-UNNAMED --add-opens=java.base/java.lang.invoke=ALL-UNNAMED --add-opens=java.base/java.lang.reflect=ALL-UNNAMED --add-opens=java.base/java.io=ALL-UNNAMED --add-opens=java.base/java.net=ALL-UNNAMED --add-opens=java.base/java.nio=ALL-UNNAMED --add-opens=java.base/java.util=ALL-UNNAMED --add-opens=java.base/java.util.concurrent=ALL-UNNAMED --add-opens=java.base/java.util.concurrent.atomic=ALL-UNNAMED --add-opens=java.base/sun.nio.ch=ALL-UNNAMED --add-opens=java.base/sun.nio.cs=ALL-UNNAMED --add-opens=java.base/sun.security.action=ALL-UNNAMED --add-opens=java.base/sun.util.calendar=ALL-UNNAMED --add-opens=java.security.jgss/sun.security.krb5=ALL-UNNAMED -Djdk.reflect.useDirectMethodHandle=false -XX:+UseG1GC
spark.executor.extraLibraryPath=/usr/hdp/hadoop/lib/native
spark.executor.id=driver
spark.executor.instances=1
spark.executor.memory=10g
spark.executorEnv.LD_LIBRARY_PATH=/cvmfs/sft.cern.ch/lcg/releases/MCGenerators/thepeg/2.2.3-3c3f6/x86_64-el9-gcc13-opt/lib/ThePEG:/cvmfs/sft.cern.ch/lcg/releases/MCGenerators/herwig++/7.2.3-46eae/x86_64-el9-gcc13-opt/lib/Herwig:/cvmfs/sft.cern.ch/lcg/views/LCG_105_swan/x86_64-el9-gcc13-opt/lib/python3.9/site-packages/jaxlib/mlir/_mlir_libs:/cvmfs/sft.cern.ch/lcg/views/LCG_105_swan/x86_64-el9-gcc13-opt/lib/python3.9/site-packages/torch/lib:/cvmfs/sft.cern.ch/lcg/views/LCG_105_swan/x86_64-el9-gcc13-opt/lib/python3.9/site-packages/onnxruntime/capi/:/cvmfs/sft.cern.ch/lcg/views/LCG_105_swan/x86_64-el9-gcc13-opt/lib/python3.9/site-packages/tensorflow:/cvmfs/sft.cern.ch/lcg/views/LCG_105_swan/x86_64-el9-gcc13-opt/lib/python3.9/site-packages/tensorflow/contrib/tensor_forest:/cvmfs/sft.cern.ch/lcg/views/LCG_105_swan/x86_64-el9-gcc13-opt/lib/python3.9/site-packages/tensorflow/python/framework:/cvmfs/sft.cern.ch/lcg/releases/java/11.0.21p9-cabd2/x86_64-el9-gcc13-opt/jre/lib/amd64:/cvmfs/sft.cern.ch/lcg/views/LCG_105_swan/x86_64-el9-gcc13-opt/lib64:/cvmfs/sft.cern.ch/lcg/views/LCG_105_swan/x86_64-el9-gcc13-opt/lib:/cvmfs/sft.cern.ch/lcg/releases/gcc/13.1.0-b3d18/x86_64-el9/lib:/cvmfs/sft.cern.ch/lcg/releases/gcc/13.1.0-b3d18/x86_64-el9/lib64:/cvmfs/sft.cern.ch/lcg/releases/binutils/2.40-acaab/x86_64-el9/lib:/cvmfs/sft.cern.ch/lcg/releases/R/4.3.0-3cb7c/x86_64-el9-gcc13-opt/lib64/R/library/readr/rcon
spark.executorEnv.PYTHONPATH=/cvmfs/sft.cern.ch/lcg/releases/condor/23.0.2-36b2d/x86_64-el9-gcc13-opt/lib/python3:/cvmfs/sft.cern.ch/lcg/views/LCG_105_swan/x86_64-el9-gcc13-opt/lib/python3.9/site-packages/itk:/cvmfs/sft.cern.ch/lcg/views/LCG_105_swan/x86_64-el9-gcc13-opt/python:/cvmfs/sft.cern.ch/lcg/views/LCG_105_swan/x86_64-el9-gcc13-opt/lib:/cvmfs/sft.cern.ch/lcg/views/LCG_105_swan/x86_64-el9-gcc13-opt/lib/python3.9/site-packages<CPS>/cvmfs/sft.cern.ch/lcg/releases/condor/23.0.2-36b2d/x86_64-el9-gcc13-opt/lib/python3:/cvmfs/sft.cern.ch/lcg/views/LCG_105_swan/x86_64-el9-gcc13-opt/lib/python3.9/site-packages/itk:/cvmfs/sft.cern.ch/lcg/views/LCG_105_swan/x86_64-el9-gcc13-opt/python:/cvmfs/sft.cern.ch/lcg/views/LCG_105_swan/x86_64-el9-gcc13-opt/lib:/cvmfs/sft.cern.ch/lcg/views/LCG_105_swan/x86_64-el9-gcc13-opt/lib/python3.9/site-packages<CPS>{{PWD}}/pyspark.zip<CPS>{{PWD}}/py4j-0.10.9.7-src.zip
spark.kerberos.access.hadoopFileSystems=analytix
spark.master=yarn
spark.network.timeout=600s
spark.org.apache.hadoop.yarn.server.webproxy.amfilter.AmIpFilter.param.PROXY_HOSTS=ithdp6013.cern.ch,ithdp6014.cern.ch
spark.org.apache.hadoop.yarn.server.webproxy.amfilter.AmIpFilter.param.PROXY_URI_BASES=https://ithdp6013.cern.ch:8088/proxy/application_1728468936023_18283,https://ithdp6014.cern.ch:8088/proxy/application_1728468936023_18283
spark.org.apache.hadoop.yarn.server.webproxy.amfilter.AmIpFilter.param.RM_HA_URLS=ithdp6013.cern.ch:8088,ithdp6014.cern.ch:8088
spark.port.maxRetries=99
spark.rdd.compress=True
spark.serializer.objectStreamReset=100
spark.shuffle.service.enabled=true
spark.shuffle.service.name=spark_shuffle
spark.shuffle.service.port=7337
spark.sql.broadcastTimeout=36000
spark.sql.parquet.columnarReaderBatchSize=4096
spark.ssl.historyServer.enabled=true
spark.ssl.historyServer.port=18080
spark.ssl.protocol=tls
spark.submit.deployMode=client
spark.submit.pyFiles=
spark.ui.filters=org.apache.hadoop.yarn.server.webproxy.amfilter.AmIpFilter
spark.ui.port=5201
spark.ui.proxyBase=/proxy/application_1728468936023_18283
spark.ui.showConsoleProgress=true
spark.yarn.historyServer.address=ithdp6014.cern.ch:18080
spark.yarn.isPython=true


-------------------------------------
-------------------------------------
Procesing complete Run2018_UL dataset
-------------------------------------
-------------------------------------


Loading parquet files: ['/cms/muon_pog/parquet/muon/Z/Run2018_UL_Jul23/MINIAOD/Run2018A/tnp.parquet']
Loading parquet files: ['/cms/muon_pog/parquet/muon/Z/Run2018_UL_Jul23/MINIAOD/Run2018B/tnp.parquet']
Loading parquet files: ['/cms/muon_pog/parquet/muon/Z/Run2018_UL_Jul23/MINIAOD/Run2018C/tnp.parquet']
Loading parquet files: ['/cms/muon_pog/parquet/muon/Z/Run2018_UL_Jul23/MINIAOD/Run2018D/tnp.parquet']
Loading parquet files: ['/cms/muon_pog/parquet/muon/Z/Run2018_UL_Jul23/MINIAOD/DY_powheg/tnp.parquet']
Loading parquet files: ['/cms/muon_pog/parquet/muon/Z/Run2018_UL_Jul23/MINIAOD/DY_madgraph/tnp.parquet']
Loading parquet files: ['/cms/muon_pog/parquet/muon/Z/Run2018_UL_Jul23/MINIAOD/Run2018A/tnp.parquet']
Loading parquet files: ['/cms/muon_pog/parquet/muon/Z/Run2018_UL_Jul23/MINIAOD/Run2018B/tnp.parquet']
Loading parquet files: ['/cms/muon_pog/parquet/muon/Z/Run2018_UL_Jul23/MINIAOD/Run2018C/tnp.parquet']
Loading parquet files: ['/cms/muon_pog/parquet/muon/Z/Run2018_UL_Jul23/MINIAOD/Run2018D/tnp.parquet']
Loading parquet files: ['/cms/muon_pog/parquet/muon/Z/Run2018_UL_Jul23/MINIAOD/DY_powheg/tnp.parquet']
Loading parquet files: ['/cms/muon_pog/parquet/muon/Z/Run2018_UL_Jul23/MINIAOD/DY_madgraph/tnp.parquet']
Loading parquet files: ['/cms/muon_pog/parquet/muon/Z/Run2018_UL_Jul23/MINIAOD/Run2018A/tnp.parquet']
Loading parquet files: ['/cms/muon_pog/parquet/muon/Z/Run2018_UL_Jul23/MINIAOD/Run2018B/tnp.parquet']
Loading parquet files: ['/cms/muon_pog/parquet/muon/Z/Run2018_UL_Jul23/MINIAOD/Run2018C/tnp.parquet']
Loading parquet files: ['/cms/muon_pog/parquet/muon/Z/Run2018_UL_Jul23/MINIAOD/Run2018D/tnp.parquet']
Loading parquet files: ['/cms/muon_pog/parquet/muon/Z/Run2018_UL_Jul23/MINIAOD/DY_powheg/tnp.parquet']
Loading parquet files: ['/cms/muon_pog/parquet/muon/Z/Run2018_UL_Jul23/MINIAOD/DY_madgraph/tnp.parquet'][Stage 460:=====>      (220 + 63) / 459][Stage 461:=>           (40 + 63) / 459][Stage 460:======>     (262 + 41) / 459][Stage 461:===>        (135 + 48) / 459][Stage 460:=======>    (299 + 14) / 459][Stage 461:=====>      (205 + 29) / 459][Stage 460:========>    (307 + 8) / 459][Stage 461:======>     (245 + 21) / 459][Stage 460:========>    (315 + 5) / 459][Stage 461:=======>    (278 + 10) / 459][Stage 460:=========>   (321 + 4) / 459][Stage 461:========>    (291 + 4) / 459][Stage 460:=========>   (324 + 4) / 459][Stage 461:========>    (294 + 1) / 459][Stage 460:=========>   (328 + 0) / 459][Stage 461:========>    (296 + 5) / 459][Stage 460:=========>   (328 + 0) / 459][Stage 461:========>    (303 + 5) / 459][Stage 460:=========>   (328 + 0) / 459][Stage 461:========>    (308 + 5) / 459][Stage 460:=========>   (328 + 0) / 459][Stage 461:========>    (315 + 5) / 459][Stage 460:=========>   (328 + 0) / 459][Stage 461:=========>   (321 + 4) / 459][Stage 460:=========>   (328 + 0) / 459][Stage 461:=========>   (325 + 3) / 459][Stage 460:=========>   (330 + 4) / 459][Stage 461:=========>   (328 + 0) / 459][Stage 460:=========>   (334 + 1) / 459][Stage 461:=========>   (329 + 3) / 459][Stage 460:========>   (338 + 50) / 459][Stage 461:=========>   (334 + 4) / 459][Stage 460:==========> (405 + 12) / 459][Stage 461:=========>  (348 + 31) / 459][Stage 460:===========> (421 + 2) / 459][Stage 461:==========> (392 + 10) / 459][Stage 460:===========> (423 + 0) / 459][Stage 461:===========> (406 + 8) / 459][Stage 460:===========> (423 + 0) / 459][Stage 461:===========> (418 + 4) / 459][Stage 460:===========> (423 + 0) / 459][Stage 461:===========> (422 + 1) / 459][Stage 460:===========> (423 + 0) / 459][Stage 461:===========> (423 + 0) / 459][Stage 460:===========>(428 + 31) / 459][Stage 461:===========>(428 + 31) / 459][Stage 460:============>(456 + 3) / 459][Stage 461:============>(457 + 2) / 459][Stage 460:============>(457 + 2) / 459][Stage 461:============>(457 + 2) / 459][Stage 467:===================================================> (196 + 4) / 200]                                                                                [Stage 473:=======>    (271 + 32) / 459][Stage 474:==>          (98 + 76) / 459][Stage 473:=======>    (296 + 15) / 459][Stage 474:=====>      (201 + 43) / 459][Stage 473:========>    (313 + 6) / 459][Stage 474:======>     (251 + 28) / 459][Stage 473:=========>   (320 + 4) / 459][Stage 474:=======>    (279 + 13) / 459][Stage 473:=========>   (324 + 4) / 459][Stage 474:========>    (293 + 2) / 459][Stage 473:=========>   (328 + 0) / 459][Stage 474:========>    (298 + 4) / 459][Stage 473:=========>   (328 + 0) / 459][Stage 474:========>    (304 + 4) / 459][Stage 473:=========>   (328 + 0) / 459][Stage 474:========>    (310 + 4) / 459][Stage 473:=========>   (328 + 0) / 459][Stage 474:========>    (316 + 4) / 459][Stage 473:=========>   (328 + 0) / 459][Stage 474:=========>   (321 + 4) / 459][Stage 473:=========>   (328 + 0) / 459][Stage 474:=========>   (325 + 3) / 459][Stage 473:========>   (328 + 52) / 459][Stage 474:=========>   (325 + 3) / 459][Stage 473:========>   (328 + 52) / 459][Stage 474:=========>   (325 + 6) / 459][Stage 473:========>   (328 + 55) / 459][Stage 474:=========>   (328 + 3) / 459][Stage 473:=======>   (328 + 125) / 459][Stage 474:=========>   (328 + 3) / 459][Stage 473:=========>  (371 + 84) / 459][Stage 474:========>   (330 + 44) / 459][Stage 473:===========>(430 + 25) / 459][Stage 474:==========> (398 + 61) / 459][Stage 473:===========>(445 + 10) / 459][Stage 474:===========>(446 + 13) / 459][Stage 473:============>(447 + 8) / 459][Stage 474:============>(453 + 6) / 459][Stage 473:============>(451 + 4) / 459][Stage 474:============>(457 + 2) / 459][Stage 473:============>(451 + 4) / 459][Stage 474:============>(458 + 1) / 459][Stage 473:====================================================>(454 + 1) / 459][Stage 473:====================================================>(455 + 0) / 459][Stage 473:====================================================>(455 + 4) / 459]                                                                                
