{
  "schema_version": 2,
  "corrections": [
    {
      "name": "EGamma_SF2D",
      "description": "Electron scale factor with errors",
      "version": 1,
      "inputs": [
        {
          "name": "year",
          "type": "string"
        },
        {
          "name": "ValType",
          "type": "string"
        },
        {
          "name": "WorkingPoint",
          "type": "string"
        },
        {
          "name": "eta",
          "type": "real"
        },
        {
          "name": "pt",
          "type": "real"
        }
      ],
      "output": {
        "name": "weight",
        "type": "real",
        "description": "value of scale factor (nominal, up or down)"
      },
      "data": {
        "nodetype": "category",
        "input": "year",
        "content": [
          {
            "key": "2018UL",
            "value": {
              "nodetype": "category",
              "input": "ValType",
              "content": [
                {
                  "key": "sf",
                  "value": {
                    "nodetype": "category",
                    "input": "WorkingPoint",
                    "content": [
                      {
                        "key": "trigger",
                        "value": {
                          "nodetype": "multibinning",
                          "inputs": [
                            "eta",
                            "pt"
                          ],
                          "edges": [
                            [
                              -2.5,
                              -2.2,
                              -2.0,
                              -1.566,
                              -1.444,
                              -0.8,
                              0.0,
                              0.8,
                              1.444,
                              1.566,
                              2.0,
                              2.2,
                              2.5
                            ],
                            [
                              35.0,
                              36.0,
                              38.0,
                              40.0,
                              50.0,
                              70.0,
                              100.0,
                              Infinity
                            ]
                          ],
                          "content": [
                            1.2134315967559814,
                            1.0760250091552734,
                            1.0393871068954468,
                            1.039160966873169,
                            1.0336127281188965,
                            1.0204020738601685,
                            0.994682252407074,
                            1.4224528074264526,
                            1.128873586654663,
                            1.026681661605835,
                            1.0051041841506958,
                            1.0049008131027222,
                            0.9984331130981445,
                            1.0170913934707642,
                            1.0573205947875977,
                            0.9768086671829224,
                            0.9798617959022522,
                            0.987156331539154,
                            0.9980387687683105,
                            0.98108971118927,
                            1.0048115253448486,
                            0.9198682904243469,
                            0.9421887397766113,
                            0.9631473422050476,
                            0.9929684400558472,
                            1.0393872261047363,
                            1.0485256910324097,
                            1.0003527402877808,
                            0.8858755826950073,
                            0.9240832328796387,
                            0.9485886693000793,
                            0.9643582105636597,
                            0.9724963307380676,
                            0.9755246639251709,
                            0.9886988997459412,
                            0.9476104974746704,
                            0.956372857093811,
                            0.9699373841285706,
                            0.9720631837844849,
                            0.9734746217727661,
                            0.9811965823173523,
                            0.9932277798652649,
                            0.9391433000564575,
                            0.955772876739502,
                            0.9657666683197021,
                            0.96437007188797,
                            0.9665317535400391,
                            0.968036413192749,
                            0.9841225147247314,
                            0.8916099071502686,
                            0.920311689376831,
                            0.9483481645584106,
                            0.9701609015464783,
                            0.976331889629364,
                            0.9815202951431274,
                            0.9968152642250061,
                            0.9132033586502075,
                            0.9370094537734985,
                            0.973993718624115,
                            0.9772429466247559,
                            0.9973415732383728,
                            0.9892524480819702,
                            1.0150748491287231,
                            1.0516831874847412,
                            1.015999436378479,
                            0.9922888278961182,
                            0.9868574738502502,
                            0.9933738708496094,
                            0.998492419719696,
                            0.9972867369651794,
                            1.4000414609909058,
                            1.1668034791946411,
                            1.0623148679733276,
                            1.0068451166152954,
                            1.005112648010254,
                            1.0208767652511597,
                            1.0020432472229004,
                            1.1416535377502441,
                            1.0739457607269287,
                            1.0799424648284912,
                            1.0607227087020874,
                            1.0311065912246704,
                            1.0130449533462524,
                            1.0052461624145508
                          ],
                          "flow": "error"
                        }
                      },
                      {
                        "key": "tightID",
                        "value": {
                          "nodetype": "multibinning",
                          "inputs": [
                            "eta",
                            "pt"
                          ],
                          "edges": [
                            [
                              -2.5,
                              -2.2,
                              -2.0,
                              -1.566,
                              -1.444,
                              -0.8,
                              0.0,
                              0.8,
                              1.444,
                              1.566,
                              2.0,
                              2.2,
                              2.5
                            ],
                            [
                              10.0,
                              15.0,
                              20.0,
                              25.0,
                              30.0,
                              32.0,
                              35.0,
                              40.0,
                              50.0,
                              70.0,
                              100.0,
                              Infinity
                            ]
                          ],
                          "content": [
                            0.9857170581817627,
                            0.9128556847572327,
                            0.905906081199646,
                            0.9140865802764893,
                            0.936496376991272,
                            0.9296316504478455,
                            0.9505429863929749,
                            0.9560030102729797,
                            0.9368008971214294,
                            0.9898097515106201,
                            0.9743061065673828,
                            0.8232459425926208,
                            0.90232914686203,
                            0.9257685542106628,
                            0.9084861278533936,
                            0.8955813646316528,
                            0.9146292209625244,
                            0.9412689805030823,
                            0.9437957406044006,
                            0.9544885158538818,
                            0.9545487761497498,
                            0.9717169404029846,
                            0.9100776314735413,
                            0.9017100930213928,
                            0.8995921015739441,
                            0.9151900410652161,
                            0.9211310148239136,
                            0.9168933033943176,
                            0.947274923324585,
                            0.9518950581550598,
                            0.960250198841095,
                            0.9748270511627197,
                            0.9768500328063965,
                            1.0356850624084473,
                            0.8979088664054871,
                            0.9001941680908203,
                            0.9389991164207458,
                            0.9460076689720154,
                            0.9485491514205933,
                            0.9387447834014893,
                            0.9381765127182007,
                            0.9468868374824524,
                            0.9277575016021729,
                            0.9461864829063416,
                            0.9481597542762756,
                            0.9212989807128906,
                            0.9182743430137634,
                            0.9229639768600464,
                            0.9434270262718201,
                            0.9351015090942383,
                            0.9574496746063232,
                            0.9585230350494385,
                            0.9589945673942566,
                            0.9728485345840454,
                            0.97845059633255,
                            0.9217917919158936,
                            0.9323776960372925,
                            0.9223722219467163,
                            0.9401448369026184,
                            0.9498241543769836,
                            0.9489944577217102,
                            0.9658108949661255,
                            0.9649336338043213,
                            0.966171145439148,
                            0.9781429767608643,
                            0.9739333987236023,
                            0.9280681610107422,
                            0.9471120238304138,
                            0.9310317635536194,
                            0.9491600394248962,
                            0.9568349123001099,
                            0.9569224119186401,
                            0.966890811920166,
                            0.9687767028808594,
                            0.965522050857544,
                            0.9753051996231079,
                            0.9945880174636841,
                            0.938045859336853,
                            0.9339585304260254,
                            0.9098128080368042,
                            0.9270110726356506,
                            0.94368976354599,
                            0.9683811664581299,
                            0.9596938490867615,
                            0.9593640565872192,
                            0.9568719863891602,
                            0.9688838124275208,
                            0.9828783273696899,
                            0.9752781987190247,
                            0.8876263499259949,
                            0.8860655426979065,
                            0.9134640097618103,
                            0.9469760656356812,
                            0.9394246339797974,
                            0.939042329788208,
                            0.9400739669799805,
                            0.9445974230766296,
                            0.9939493536949158,
                            0.9637739062309265,
                            0.8308795094490051,
                            0.9008997678756714,
                            0.8833516836166382,
                            0.8971882462501526,
                            0.9158727526664734,
                            0.9231650233268738,
                            0.946291983127594,
                            0.9527835249900818,
                            0.9534518718719482,
                            0.9727251529693604,
                            0.9701728224754333,
                            0.9114184975624084,
                            0.8891326189041138,
                            0.8867982029914856,
                            0.8955494165420532,
                            0.9033005833625793,
                            0.9087533950805664,
                            0.926831841468811,
                            0.9408766627311707,
                            0.9437187910079956,
                            0.9833789467811584,
                            0.9528974294662476,
                            0.9425188302993774,
                            0.8820037245750427,
                            0.901085376739502,
                            0.8962588906288147,
                            0.8975404500961304,
                            0.910245418548584,
                            0.9269794821739197,
                            0.9319072365760803,
                            0.9442107677459717,
                            0.8877132534980774,
                            0.9688194990158081
                          ],
                          "flow": "error"
                        }
                      },
                      {
                        "key": "looseID",
                        "value": {
                          "nodetype": "multibinning",
                          "inputs": [
                            "eta",
                            "pt"
                          ],
                          "edges": [
                            [
                              -2.5,
                              -2.2,
                              -2.0,
                              -1.566,
                              -1.444,
                              -0.8,
                              0.0,
                              0.8,
                              1.444,
                              1.566,
                              2.0,
                              2.2,
                              2.5
                            ],
                            [
                              10.0,
                              15.0,
                              20.0,
                              25.0,
                              30.0,
                              32.0,
                              35.0,
                              40.0,
                              50.0,
                              70.0,
                              100.0,
                              Infinity
                            ]
                          ],
                          "content": [
                            0.9325769543647766,
                            0.8719162940979004,
                            0.907958447933197,
                            0.9345295429229736,
                            0.9671736359596252,
                            0.9661175608634949,
                            0.979369580745697,
                            0.9808297157287598,
                            0.9789956212043762,
                            0.9951124787330627,
                            0.9673140048980713,
                            0.7673845291137695,
                            0.8676163554191589,
                            0.9109646081924438,
                            0.9269299507141113,
                            0.9362460374832153,
                            0.9481959939002991,
                            0.9708924889564514,
                            0.9756056070327759,
                            0.9820951223373413,
                            0.9958366751670837,
                            0.9845553040504456,
                            0.926794707775116,
                            0.8509989976882935,
                            0.8842675089836121,
                            0.9257481694221497,
                            0.9577286839485168,
                            0.9492992162704468,
                            0.9757382273674011,
                            0.980464518070221,
                            0.9847096800804138,
                            0.9964941740036011,
                            0.9783769845962524,
                            0.7827939391136169,
                            0.8579542636871338,
                            0.8946031332015991,
                            0.9367213845252991,
                            0.9510704278945923,
                            0.9688030481338501,
                            0.9667974710464478,
                            0.967348039150238,
                            0.9655327200889587,
                            0.94549959897995,
                            0.9585256576538086,
                            0.7991953492164612,
                            0.8086286187171936,
                            0.8933591842651367,
                            0.9513718485832214,
                            0.9539726376533508,
                            0.9550656080245972,
                            0.974049985408783,
                            0.977623462677002,
                            0.9765620827674866,
                            0.9766448736190796,
                            0.9794111251831055,
                            0.7671791315078735,
                            0.8495434522628784,
                            0.8920063376426697,
                            0.9607074856758118,
                            0.9611122012138367,
                            0.966286301612854,
                            0.9788271188735962,
                            0.9812625050544739,
                            0.9795496463775635,
                            0.9808985590934753,
                            0.9784948825836182,
                            0.7812831401824951,
                            0.8569732308387756,
                            0.8950183987617493,
                            0.9670905470848083,
                            0.9648675918579102,
                            0.9695931077003479,
                            0.9787106513977051,
                            0.9826999306678772,
                            0.978835940361023,
                            0.9776537418365479,
                            0.9901279807090759,
                            0.8021106719970703,
                            0.8622177839279175,
                            0.8825647234916687,
                            0.9555183053016663,
                            0.9652384519577026,
                            0.9602016806602478,
                            0.9760626554489136,
                            0.9785780906677246,
                            0.9740030169487,
                            0.9834265112876892,
                            0.976207435131073,
                            0.6616538763046265,
                            0.8677958846092224,
                            0.8854570388793945,
                            0.9356301426887512,
                            0.9573526978492737,
                            0.9588498473167419,
                            0.9620948433876038,
                            0.969459593296051,
                            0.963100254535675,
                            0.9813105463981628,
                            0.9655243754386902,
                            0.9552654027938843,
                            0.7918179035186768,
                            0.8839960098266602,
                            0.9208144545555115,
                            0.944277822971344,
                            0.9564545750617981,
                            0.9753651022911072,
                            0.9812178015708923,
                            0.981704592704773,
                            0.9720489978790283,
                            0.9720885157585144,
                            0.7427498698234558,
                            0.9628337025642395,
                            0.8894451856613159,
                            0.9262357354164124,
                            0.9280709028244019,
                            0.9419061541557312,
                            0.9667317867279053,
                            0.975400447845459,
                            0.9556145071983337,
                            0.9817845225334167,
                            0.9661635756492615,
                            0.7893270254135132,
                            0.856205403804779,
                            0.901347815990448,
                            0.9224289655685425,
                            0.9388096332550049,
                            0.9492480158805847,
                            0.9660590291023254,
                            0.970583975315094,
                            0.9742819666862488,
                            0.958023190498352,
                            0.9636929631233215
                          ],
                          "flow": "error"
                        }
                      }
                    ]
                  }
                },
                {
                  "key": "sf_err",
                  "value": {
                    "nodetype": "category",
                    "input": "WorkingPoint",
                    "content": [
                      {
                        "key": "trigger",
                        "value": {
                          "nodetype": "multibinning",
                          "inputs": [
                            "eta",
                            "pt"
                          ],
                          "edges": [
                            [
                              -2.5,
                              -2.2,
                              -2.0,
                              -1.566,
                              -1.444,
                              -0.8,
                              0.0,
                              0.8,
                              1.444,
                              1.566,
                              2.0,
                              2.2,
                              2.5
                            ],
                            [
                              35.0,
                              36.0,
                              38.0,
                              40.0,
                              50.0,
                              70.0,
                              100.0,
                              Infinity
                            ]
                          ],
                          "content": [
                            0.017040669060670966,
                            0.008148897828197174,
                            0.006327741861548158,
                            0.002871226309740748,
                            0.01231750464241505,
                            0.015427190098254188,
                            0.012573265740990484,
                            0.01751680731986925,
                            0.007473690745413956,
                            0.005368768599212548,
                            0.0023148955725736118,
                            0.00439743117955764,
                            0.011695322062317685,
                            0.011951835788244146,
                            0.0073282796615978096,
                            0.0036836395122279287,
                            0.0030642138375713587,
                            0.0016532473185117522,
                            0.0036274538627491253,
                            0.006611958088198974,
                            0.006583534747832328,
                            0.019679781673588543,
                            0.011016931062346866,
                            0.009298416455038148,
                            0.00529693436515615,
                            0.011709543760614479,
                            0.03616654578148469,
                            0.024612312004962472,
                            0.0043262220185882804,
                            0.0034634139594628627,
                            0.0022295114018655747,
                            0.0020785846116212173,
                            0.001872635391258976,
                            0.004495102644419928,
                            0.0039003525307647977,
                            0.0029837322932784556,
                            0.0024882597158877185,
                            0.0017704319620627856,
                            0.0016001735574005594,
                            0.001549103903290891,
                            0.003219625999760686,
                            0.0030093139638508295,
                            0.0030031478255302235,
                            0.002065295825697129,
                            0.0018303417905860958,
                            0.0016155904583585077,
                            0.0015818923156579845,
                            0.0035952706846020584,
                            0.0034662329222529776,
                            0.0044962956815121245,
                            0.0026474601450207596,
                            0.00233026055872466,
                            0.001673582177161324,
                            0.0019761334271908744,
                            0.038316136388807986,
                            0.004459773596679298,
                            0.031301466712703,
                            0.01185314479156916,
                            0.009847620129613857,
                            0.004058177908001129,
                            0.008732948692563313,
                            0.025421774879354087,
                            0.023541373791288588,
                            0.0075728788373027245,
                            0.004115327766196554,
                            0.003302934431089956,
                            0.001759331260276849,
                            0.003361370760507449,
                            0.007235186330637093,
                            0.0072097172578719166,
                            0.017161393528559773,
                            0.008027161518003291,
                            0.006118756049187145,
                            0.0023759668699022325,
                            0.006507194624816021,
                            0.021519171295589855,
                            0.01318077188580751,
                            0.01676916862116166,
                            0.008706968093127028,
                            0.010626305918453332,
                            0.003162295653482109,
                            0.006325898545323593,
                            0.016473070451822884,
                            0.02002818176390757
                          ],
                          "flow": "error"
                        }
                      },
                      {
                        "key": "tightID",
                        "value": {
                          "nodetype": "multibinning",
                          "inputs": [
                            "eta",
                            "pt"
                          ],
                          "edges": [
                            [
                              -2.5,
                              -2.2,
                              -2.0,
                              -1.566,
                              -1.444,
                              -0.8,
                              0.0,
                              0.8,
                              1.444,
                              1.566,
                              2.0,
                              2.2,
                              2.5
                            ],
                            [
                              10.0,
                              15.0,
                              20.0,
                              25.0,
                              30.0,
                              32.0,
                              35.0,
                              40.0,
                              50.0,
                              70.0,
                              100.0,
                              Infinity
                            ]
                          ],
                          "content": [
                            0.06740574917618417,
                            0.021154282446271256,
                            0.011527244806210818,
                            0.007929247937680337,
                            0.019138035027997005,
                            0.007688289859536891,
                            0.003483936199069613,
                            0.00458051492222392,
                            0.007598683109885883,
                            0.015985697496919034,
                            0.02526797303083533,
                            0.14574558544011607,
                            0.01731189600820148,
                            0.02690074928101859,
                            0.008283747939630106,
                            0.009168809842706883,
                            0.006060530318785556,
                            0.0041590759589929,
                            0.0021510173843268575,
                            0.006536636927866721,
                            0.013424310711794223,
                            0.022320092658605815,
                            0.10800021806506464,
                            0.016667483029643628,
                            0.01989661622502016,
                            0.011355878711281513,
                            0.009221732277028315,
                            0.004075869483145323,
                            0.0020221154910818767,
                            0.0016317342415115004,
                            0.004752980792591517,
                            0.010942907789986436,
                            0.00921486086816269,
                            0.12264529934941514,
                            0.047540793270321666,
                            0.04701734688674724,
                            0.03727932433006899,
                            0.024923384843662515,
                            0.15774811394460048,
                            0.005302539839475946,
                            0.0035282385626417417,
                            0.006523139814363742,
                            0.021463204645623863,
                            0.03290042022205756,
                            0.07555888997872783,
                            0.03215931937315668,
                            0.02448179623531726,
                            0.015091446362970893,
                            0.01788682759824366,
                            0.0046654632560913685,
                            0.0017016621588054716,
                            0.0017467725074694603,
                            0.0018507201740974519,
                            0.005163456713489419,
                            0.007444543137796485,
                            0.02279972680228457,
                            0.024010564685245296,
                            0.026170134877818052,
                            0.019004536159887214,
                            0.011633828168740696,
                            0.004319559205925923,
                            0.00174072445435395,
                            0.0021781886206820914,
                            0.001573351891714339,
                            0.006229485126390131,
                            0.005155140012431973,
                            0.02424992324410046,
                            0.01725987204731359,
                            0.022712329754845665,
                            0.016459312906634094,
                            0.01901736388286737,
                            0.0077803189944674455,
                            0.0017191161207119625,
                            0.001623782922534076,
                            0.0021926091631811967,
                            0.00427943233111469,
                            0.009941499921084201,
                            0.08150257798607675,
                            0.02346562226502664,
                            0.02796775444060152,
                            0.017955491203333424,
                            0.017346155211422052,
                            0.02781918359473292,
                            0.0017250193122943485,
                            0.0017463158226578047,
                            0.0018278805499906301,
                            0.008227125738132685,
                            0.007896624855426889,
                            0.10891935068353256,
                            0.0438130955579332,
                            0.04886585723381953,
                            0.02000280888291164,
                            0.03861532313064274,
                            0.017075444577846835,
                            0.005413789117997459,
                            0.0036102988491891934,
                            0.007016935663278121,
                            0.034453754507097756,
                            0.03634009349204407,
                            0.14736824588104225,
                            0.016099257778021694,
                            0.020941723523446983,
                            0.008943069393196761,
                            0.006142687639506353,
                            0.00921784279648285,
                            0.001963051800848433,
                            0.0016321446511187577,
                            0.0036087847138714514,
                            0.007697038142787677,
                            0.01003673522469984,
                            0.07607422058458635,
                            0.05528715221510265,
                            0.03054990309937003,
                            0.012976417129232977,
                            0.009186300446540327,
                            0.0069347188920671175,
                            0.0030566563000384538,
                            0.0036254829623965216,
                            0.007776415855238024,
                            0.024289018618730417,
                            0.02227894500523022,
                            0.04846387714173696,
                            0.026493681408247687,
                            0.02900137734897844,
                            0.012306048427679675,
                            0.012281866475844096,
                            0.0071237535831119095,
                            0.005510403254460638,
                            0.0025893578641526037,
                            0.00819505167809786,
                            0.029796753334613853,
                            0.04702905121704632
                          ],
                          "flow": "error"
                        }
                      },
                      {
                        "key": "looseID",
                        "value": {
                          "nodetype": "multibinning",
                          "inputs": [
                            "eta",
                            "pt"
                          ],
                          "edges": [
                            [
                              -2.5,
                              -2.2,
                              -2.0,
                              -1.566,
                              -1.444,
                              -0.8,
                              0.0,
                              0.8,
                              1.444,
                              1.566,
                              2.0,
                              2.2,
                              2.5
                            ],
                            [
                              10.0,
                              15.0,
                              20.0,
                              25.0,
                              30.0,
                              32.0,
                              35.0,
                              40.0,
                              50.0,
                              70.0,
                              100.0,
                              Infinity
                            ]
                          ],
                          "content": [
                            0.0676764364996893,
                            0.08047537056758731,
                            0.03654255985327376,
                            0.015453126537312963,
                            0.017717716221142543,
                            0.00862445305805667,
                            0.0046587426536342895,
                            0.0037567585583753167,
                            0.003475969165272201,
                            0.010101087819118428,
                            0.0237603157530641,
                            0.1639976518464273,
                            0.0946450871991464,
                            0.048562852669569716,
                            0.01952924606132169,
                            0.011657797952823807,
                            0.00718037076372703,
                            0.004058673632760277,
                            0.0026050687878715925,
                            0.0033541815611498214,
                            0.008510531507393315,
                            0.019995123916626216,
                            0.11241752800313794,
                            0.10012864377623464,
                            0.04703733769512855,
                            0.021357829390709612,
                            0.0052347976429930505,
                            0.006639656462350438,
                            0.00389112352634112,
                            0.002425452565909796,
                            0.001518302386623124,
                            0.007448439190161134,
                            0.02026332818401156,
                            0.2423536125410161,
                            0.08929354282582579,
                            0.04374035020336468,
                            0.022774682292499314,
                            0.023295617191251033,
                            0.015260953131867728,
                            0.0045739961014482754,
                            0.0026324035264060327,
                            0.005753248620962292,
                            0.020094702664936157,
                            0.029386522060935387,
                            0.16642460792099592,
                            0.0982125608420971,
                            0.04870920879690318,
                            0.00800148238672726,
                            0.011915465083806533,
                            0.006076358089162207,
                            0.003338299283999276,
                            0.0020017695623404993,
                            0.004336071741356136,
                            0.010428463723886831,
                            0.016214442749526787,
                            0.15677024704087925,
                            0.10328108249461306,
                            0.047350038611585744,
                            0.012186888154531162,
                            0.012826258428904587,
                            0.006810633909607457,
                            0.003217342739273943,
                            0.001998176735976381,
                            0.0036629062948407773,
                            0.01080293560700932,
                            0.009548155687171564,
                            0.16254949758578519,
                            0.10764945487675326,
                            0.04749735667285225,
                            0.011633067775771897,
                            0.016470176839627915,
                            0.007915227818607255,
                            0.003159440215481785,
                            0.0020503854578645545,
                            0.0036119808679407005,
                            0.00886207837438526,
                            0.011320158626552402,
                            0.1662562090812191,
                            0.1050207622513492,
                            0.044120350787589455,
                            0.009491339097102737,
                            0.009697682539648606,
                            0.006467105439488439,
                            0.002509205268938332,
                            0.0020491512570610026,
                            0.003650927040611593,
                            0.008422633561503015,
                            0.016371262603220815,
                            0.1620195708368601,
                            0.076782391971125,
                            0.03858632382158259,
                            0.017080772336827383,
                            0.021373965036927848,
                            0.008968501061557992,
                            0.004111862445278531,
                            0.0030873850237396775,
                            0.0057784306980079685,
                            0.025621730165345115,
                            0.02955167153652631,
                            0.07234790127565878,
                            0.08839325735610601,
                            0.03927028590855182,
                            0.015782243593705725,
                            0.009367726070200345,
                            0.006914828992543246,
                            0.003448442148150549,
                            0.0022883985657992005,
                            0.0015911548748415664,
                            0.019367988654804196,
                            0.017210852186224375,
                            0.15214560730331003,
                            0.028455762991028834,
                            0.040522149574911015,
                            0.019518235187342473,
                            0.011127733795260827,
                            0.007090101386284442,
                            0.0034867759081282997,
                            0.0026521033843590427,
                            0.008932197916719573,
                            0.008365103461080277,
                            0.021108858473242363,
                            0.1464824968886449,
                            0.07837249393951368,
                            0.040139454023689146,
                            0.01572592033984708,
                            0.010117080466037678,
                            0.007322135629900225,
                            0.00408513813300992,
                            0.0038744391775094593,
                            0.003853492567582051,
                            0.013804822815485937,
                            0.021396286511010148
                          ],
                          "flow": "error"
                        }
                      }
                    ]
                  }
                }
              ]
            }
          }
        ]
      }
    }
  ]
}